CPU.vcd
$date
	Fri May 29 21:46:49 2026
$end
$version
	Icarus Verilog
$end
$timescale
	1ps
$end
$scope module Pipeline_CPU_tb $end
$var wire 32 ! wb_data [31:0] $end
$var wire 32 " current_pc [31:0] $end
$var wire 32 # current_inst [31:0] $end
$var reg 1 $ clk $end
$var reg 1 % reset $end
$scope module uut $end
$var wire 1 $ clk $end
$var wire 32 & current_inst [31:0] $end
$var wire 32 ' current_pc [31:0] $end
$var wire 1 % reset $end
$var wire 32 ( wb_data [31:0] $end
$var wire 32 ) WB_read_data [31:0] $end
$var wire 32 * WB_Result [31:0] $end
$var wire 1 + WB_RegWrite $end
$var wire 5 , WB_Rd [4:0] $end
$var wire 32 - WB_OUT [31:0] $end
$var wire 1 . WB_MemtoReg $end
$var wire 32 / MEM_read_data [31:0] $end
$var wire 32 0 MEM_Result [31:0] $end
$var wire 1 1 MEM_RegWrite $end
$var wire 5 2 MEM_Rd [4:0] $end
$var wire 1 3 MEM_MemtoReg $end
$var wire 1 4 MEM_MemWrite $end
$var wire 1 5 MEM_MemRead $end
$var wire 32 6 MEM_B [31:0] $end
$var wire 32 7 IF_pc [31:0] $end
$var wire 32 8 IF_next_pc [31:0] $end
$var wire 32 9 IF_instruction [31:0] $end
$var wire 32 : IF_final_next_pc [31:0] $end
$var wire 1 ; IF_ID_flush $end
$var wire 32 < ID_pc [31:0] $end
$var wire 1 = ID_is_JAL $end
$var wire 1 > ID_is_BNE $end
$var wire 1 ? ID_is_BLT $end
$var wire 1 @ ID_is_BGE $end
$var wire 1 A ID_is_BEQ $end
$var wire 32 B ID_instruction [31:0] $end
$var wire 32 C ID_imm [31:0] $end
$var wire 1 D ID_funct7_bit30 $end
$var wire 5 E ID_Rs2 [4:0] $end
$var wire 5 F ID_Rs1 [4:0] $end
$var wire 1 G ID_RegWrite $end
$var wire 5 H ID_Rd [4:0] $end
$var wire 1 I ID_PCSrc $end
$var wire 1 J ID_MemtoReg $end
$var wire 1 K ID_MemWrite $end
$var wire 1 L ID_MemRead $end
$var wire 3 M ID_Funct3 [2:0] $end
$var wire 32 N ID_Early_Target [31:0] $end
$var wire 1 O ID_EX_flush $end
$var wire 1 P ID_Branch $end
$var wire 32 Q ID_B [31:0] $end
$var wire 1 R ID_ALUsrc $end
$var wire 4 S ID_ALU_Control [3:0] $end
$var wire 2 T ID_ALUOp [1:0] $end
$var wire 32 U ID_A [31:0] $end
$var wire 1 V EX_sign $end
$var wire 32 W EX_pc [31:0] $end
$var wire 1 X EX_is_BNE $end
$var wire 1 Y EX_is_BLT $end
$var wire 1 Z EX_is_BGE $end
$var wire 1 [ EX_is_BEQ $end
$var wire 32 \ EX_imm [31:0] $end
$var wire 1 ] EX_ZF $end
$var wire 32 ^ EX_Target [31:0] $end
$var wire 32 _ EX_Result [31:0] $end
$var wire 1 ` EX_RegWrite $end
$var wire 5 a EX_Rd [4:0] $end
$var wire 1 b EX_PCsrc $end
$var wire 1 c EX_MemtoReg $end
$var wire 1 d EX_MemWrite $end
$var wire 1 e EX_MemRead $end
$var wire 32 f EX_B [31:0] $end
$var wire 1 g EX_ALUsrc $end
$var wire 32 h EX_ALU_in_b [31:0] $end
$var wire 4 i EX_ALU_Control [3:0] $end
$var wire 32 j EX_A [31:0] $end
$scope module u_ALU $end
$var wire 32 k A [31:0] $end
$var wire 4 l ALU_Control [3:0] $end
$var wire 1 V sign $end
$var wire 32 m shift_result [31:0] $end
$var wire 32 n logic_result [31:0] $end
$var wire 32 o calculate_result [31:0] $end
$var wire 1 ] ZF $end
$var wire 32 p Result [31:0] $end
$var wire 32 q B [31:0] $end
$scope module MUX $end
$var wire 4 r ALU_Control [3:0] $end
$var wire 32 s shift_result [31:0] $end
$var wire 32 t logic_result [31:0] $end
$var wire 32 u calculate_result [31:0] $end
$var reg 32 v ALU_result [31:0] $end
$upscope $end
$scope module u_Adder $end
$var wire 32 w A [31:0] $end
$var wire 4 x ALU_Control [3:0] $end
$var wire 1 V sign $end
$var wire 32 y calculate_result [31:0] $end
$var wire 1 ] ZF $end
$var wire 32 z B [31:0] $end
$var reg 33 { tmp_result [32:0] $end
$upscope $end
$scope module u_Logic $end
$var wire 32 | A [31:0] $end
$var wire 4 } ALU_Control [3:0] $end
$var wire 32 ~ B [31:0] $end
$var reg 32 !" logic_result [31:0] $end
$upscope $end
$scope module u_Shift $end
$var wire 32 "" A [31:0] $end
$var wire 4 #" ALU_Control [3:0] $end
$var wire 5 $" shift_amt [4:0] $end
$var wire 32 %" B [31:0] $end
$var reg 32 &" shift_result [31:0] $end
$upscope $end
$upscope $end
$scope module u_ALU_Control $end
$var wire 1 D funct7_bit30 $end
$var wire 3 '" Funct3 [2:0] $end
$var wire 2 (" ALUOp [1:0] $end
$var reg 4 )" ALU_Control [3:0] $end
$upscope $end
$scope module u_ALUsrc $end
$var wire 1 g ALUsrc $end
$var wire 32 *" B [31:0] $end
$var wire 32 +" Imm [31:0] $end
$var wire 32 ," ALU_in_b [31:0] $end
$upscope $end
$scope module u_CPU_MUX $end
$var wire 32 -" ALU_result [31:0] $end
$var wire 1 . MemtoReg $end
$var wire 32 ." mem_read_data [31:0] $end
$var wire 32 /" OUT [31:0] $end
$upscope $end
$scope module u_Data_Memory $end
$var wire 1 5 MemRead $end
$var wire 1 4 MemWrite $end
$var wire 32 0" addr [31:0] $end
$var wire 1 $ clk $end
$var wire 1 % reset $end
$var wire 32 1" write_data [31:0] $end
$var wire 32 2" read_data [31:0] $end
$var wire 5 3" index [4:0] $end
$var integer 32 4" i [31:0] $end
$upscope $end
$scope module u_EX_MEM_reg $end
$var wire 73 5" D [72:0] $end
$var wire 1 $ clk $end
$var wire 1 6" flush $end
$var wire 1 % reset $end
$var wire 1 7" stall $end
$var reg 73 8" Q [72:0] $end
$upscope $end
$scope module u_Early_Jump_Unit $end
$var wire 32 9" pc [31:0] $end
$var wire 32 :" tmp_add [31:0] $end
$var wire 1 = is_JAL $end
$var wire 1 I PCSrc $end
$var wire 32 ;" Imm [31:0] $end
$var wire 32 <" Early_Target [31:0] $end
$upscope $end
$scope module u_Hazard_Unit $end
$var wire 1 I ID_PCSrc $end
$var wire 1 b EX_PCSrc $end
$var reg 1 O ID_EX_flush $end
$var reg 1 ; IF_ID_flush $end
$upscope $end
$scope module u_ID_EX_reg $end
$var wire 146 =" D [145:0] $end
$var wire 1 $ clk $end
$var wire 1 O flush $end
$var wire 1 % reset $end
$var wire 1 >" stall $end
$var reg 146 ?" Q [145:0] $end
$upscope $end
$scope module u_IF_ID_reg $end
$var wire 64 @" D [63:0] $end
$var wire 1 $ clk $end
$var wire 1 ; flush $end
$var wire 1 % reset $end
$var wire 1 A" stall $end
$var reg 64 B" Q [63:0] $end
$upscope $end
$scope module u_IMEM $end
$var wire 32 C" instruction [31:0] $end
$var wire 32 D" pc [31:0] $end
$upscope $end
$scope module u_ImmGen $end
$var wire 32 E" inst [31:0] $end
$var wire 7 F" Opcode [6:0] $end
$var reg 32 G" imm_out [31:0] $end
$upscope $end
$scope module u_MEM_WB_reg $end
$var wire 71 H" D [70:0] $end
$var wire 1 $ clk $end
$var wire 1 I" flush $end
$var wire 1 % reset $end
$var wire 1 J" stall $end
$var reg 71 K" Q [70:0] $end
$upscope $end
$scope module u_PCSrc $end
$var wire 1 b PCSrc $end
$var wire 1 ] ZF $end
$var wire 1 [ is_BEQ $end
$var wire 1 Z is_BGE $end
$var wire 1 Y is_BLT $end
$var wire 1 X is_BNE $end
$var wire 1 L" sign $end
$upscope $end
$scope module u_PC_Adder $end
$var wire 32 M" next_pc [31:0] $end
$var wire 32 N" current_pc [31:0] $end
$upscope $end
$scope module u_PC_MUX $end
$var wire 1 b EX_PCSrc $end
$var wire 32 O" Early_Target [31:0] $end
$var wire 1 I ID_PCSrc $end
$var wire 32 P" next_pc [31:0] $end
$var wire 32 Q" Target [31:0] $end
$var reg 32 R" final_next_pc [31:0] $end
$upscope $end
$scope module u_PC_Target $end
$var wire 32 S" imm [31:0] $end
$var wire 32 T" pc [31:0] $end
$var wire 32 U" Target [31:0] $end
$upscope $end
$scope module u_PC_reg $end
$var wire 1 $ clk $end
$var wire 32 V" next_pc [31:0] $end
$var wire 1 % reset $end
$var reg 32 W" pc [31:0] $end
$upscope $end
$scope module u_Regfile $end
$var wire 1 $ clk $end
$var wire 1 % reset $end
$var wire 1 + we $end
$var wire 5 X" we_addr [4:0] $end
$var wire 32 Y" we_data [31:0] $end
$var wire 32 Z" Rt_data [31:0] $end
$var wire 5 [" Rt_addr [4:0] $end
$var wire 32 \" Rs2_data [31:0] $end
$var wire 5 ]" Rs2_addr [4:0] $end
$var wire 32 ^" Rs1_data [31:0] $end
$var wire 5 _" Rs1_addr [4:0] $end
$var integer 32 `" i [31:0] $end
$upscope $end
$scope module u_decoder $end
$var wire 3 a" funct3 [2:0] $end
$var wire 32 b" instruction [31:0] $end
$var wire 5 c" rd [4:0] $end
$var wire 5 d" rs1 [4:0] $end
$var wire 5 e" rs2 [4:0] $end
$var wire 1 f" is_store $end
$var wire 1 g" is_load $end
$var wire 1 h" is_branch $end
$var wire 1 i" is_R_type $end
$var wire 1 j" is_Imm_alu $end
$var wire 1 k" is_FPU $end
$var wire 1 D funct7_bit30 $end
$var wire 5 l" Rs2 [4:0] $end
$var wire 5 m" Rs1 [4:0] $end
$var wire 5 n" Rd [4:0] $end
$var wire 7 o" Opcode [6:0] $end
$var wire 7 p" Funct7 [6:0] $end
$var wire 3 q" Funct3 [2:0] $end
$var reg 2 r" ALUOp [1:0] $end
$var reg 1 R ALUsrc $end
$var reg 1 P Branch $end
$var reg 1 s" FPU_en $end
$var reg 1 L MemRead $end
$var reg 1 K MemWrite $end
$var reg 1 J MemtoReg $end
$var reg 1 G RegWrite $end
$var reg 1 A is_BEQ $end
$var reg 1 @ is_BGE $end
$var reg 1 ? is_BLT $end
$var reg 1 > is_BNE $end
$var reg 1 = is_JAL $end
$var reg 1 t" is_JALR $end
$var reg 1 u" is_LW $end
$var reg 1 v" is_SW $end
$upscope $end
$upscope $end
$upscope $end
$enddefinitions $end
#0
$dumpvars
0v"
0u"
0t"
0s"
b0 r"
b0 q"
b0 p"
b0 o"
b0 n"
b0 m"
b0 l"
0k"
0j"
0i"
0h"
0g"
0f"
b0 e"
b0 d"
b0 c"
b0 b"
b0 a"
b100000 `"
b0 _"
b0 ^"
b0 ]"
b0 \"
b0 ["
b0 Z"
b0 Y"
b0 X"
b0 W"
b100 V"
b0 U"
b0 T"
b0 S"
b100 R"
b0 Q"
b100 P"
b0 O"
b0 N"
b100 M"
zL"
b0 K"
0J"
0I"
b0 H"
b0 G"
b0 F"
b0 E"
b0 D"
b101000000000000010010011 C"
b0 B"
0A"
b101000000000000010010011 @"
b0 ?"
0>"
b10000000000000000000000000000000000000000000000000000000000000000000000000000000000000000000000000000000000 ="
b0 <"
b0 ;"
b0 :"
b0 9"
b0 8"
07"
06"
b0 5"
b100000 4"
b0 3"
b0 2"
b0 1"
b0 0"
b0 /"
b0 ."
b0 -"
b0 ,"
b0 +"
b0 *"
b10 )"
b0 ("
b0 '"
b0 &"
b0 %"
b0 $"
b0 #"
b0 ""
b0 !"
b0 ~
b0 }
b0 |
b0 {
b0 z
b0 y
b0 x
b0 w
b0 v
b0 u
b0 t
b0 s
b0 r
b0 q
b0 p
b0 o
b0 n
b0 m
b0 l
b0 k
b0 j
b0 i
b0 h
0g
b0 f
0e
0d
0c
0b
b0 a
0`
b0 _
b0 ^
1]
b0 \
0[
0Z
0Y
0X
b0 W
0V
b0 U
b0 T
b10 S
0R
b0 Q
0P
0O
b0 N
b0 M
0L
0K
0J
0I
b0 H
0G
b0 F
b0 E
0D
b0 C
b0 B
0A
0@
0?
0>
0=
b0 <
0;
b100 :
b101000000000000010010011 9
b100 8
b0 7
b0 6
05
04
03
b0 2
01
b0 0
b0 /
0.
b0 -
b0 ,
0+
b0 *
b0 )
b0 (
b0 '
b0 &
1%
0$
b0 #
b0 "
b0 !
$end
#5000
b100000 4"
b100000 `"
1$
#10000
0$
#15000
b100000 `"
b100000 4"
1$
#20000
0%
0$
#25000
b10 S
b10 )"
1R
1G
b10 T
b10 ("
b10 r"
b1010 :"
b1010 C
b1010 ;"
b1010 G"
b10011 F"
b1010 E
b1010 ]"
b1010 e"
b1010 l"
b100010010000000000000000000000000000000000000000000000000000000000000000000000000000000000000000000000000101000001 ="
b1 H
b1 ["
b1 c"
b1 n"
1j"
b10011 o"
b10 i
b10 l
b10 r
b10 x
b10 }
b10 #"
b101000000000000010010011 #
b101000000000000010010011 &
b101000000000000010010011 B
b101000000000000010010011 E"
b101000000000000010010011 b"
b1000 :
b1000 R"
b1000 V"
b100010011 9
b100010011 C"
b10000000000000000000000000000000000000000000000000000000000000000000000000000000000000000000000000000000000 ?"
b101000000000000010010011 B"
b1000 8
b1000 M"
b1000 P"
b10000000000000000000000000100010011 @"
b100 "
b100 '
b100 7
b100 D"
b100 N"
b100 W"
1$
#30000
0$
#35000
0]
b1010 _
b1010 p
b1010 v
1;
b1010 o
b1010 u
b1010 y
1I
b1010 $"
b1010 {
b0 C
b0 ;"
b0 G"
b0 E
b0 ]"
b0 e"
b0 l"
b10 H
b10 ["
b10 c"
b10 n"
b100 N
b100 <"
b100 O"
b1010 h
b1010 q
b1010 z
b1010 ~
b1010 %"
b1010 ,"
b100 :
b100 R"
b100 V"
b100000000000110010011 9
b100000000000110010011 C"
b100010011 #
b100010011 &
b100010011 B
b100010011 E"
b100010011 b"
b100100010010000000000000000000000000000000000000000000000000000000000000000000000000000000000000000000000000000000010 ="
b100 :"
b100 <
b100 9"
b1 a
b1010 ^
b1010 Q"
b1010 U"
b1010 \
b1010 +"
b1010 S"
1g
b1000000000000000000000000000000010100000000000000000000000000000000000001 5"
1`
b1100 8
b1100 M"
b1100 P"
b100000000000000100000000000110010011 @"
b1000 "
b1000 '
b1000 7
b1000 D"
b1000 N"
b1000 W"
b10000000000000000000000000100010011 B"
b100010010000000000000000000000000000000000000000000000000000000000000000000000000000000000000000000000000101000001 ?"
1$
#40000
0$
#45000
1]
b0 _
b0 p
b0 v
b0 o
b0 u
b0 y
b10 S
b10 )"
0;
b0 $"
b0 {
b0 T
b0 ("
b0 r"
0G
0R
0I
b10 3"
b0 h
b0 q
b0 z
b0 ~
b0 %"
b0 ,"
b0 F"
b0 H
b0 ["
b0 c"
b0 n"
0j"
b0 o"
b0 N
b0 <"
b0 O"
b1 2
b1010 0
b1010 0"
b10000000000000000000000000000000000000000000000000000000000000101000001 H"
11
b1000000000000000000000000000000000000000000000000000000000000000000000010 5"
b10 a
b0 \
b0 +"
b0 S"
b100 ^
b100 Q"
b100 U"
b100 W
b100 T"
b0 #
b0 &
b0 B
b0 E"
b0 b"
b10000000000000000000000000000000000000000000000000000000000000000000000000000000000000000000000000000000000 ="
b0 :"
b0 <
b0 9"
b1000 :
b1000 R"
b1000 V"
b100010011 9
b100010011 C"
b1000000000000000000000000000000010100000000000000000000000000000000000001 8"
b100100010010000000000000000000000000000000000000000000000000000000000000000000000000000000000000000000000000000000010 ?"
b0 B"
b1000 8
b1000 M"
b1000 P"
b10000000000000000000000000100010011 @"
b100 "
b100 '
b100 7
b100 D"
b100 N"
b100 W"
1$
#50000
0$
#55000
b10 S
b10 )"
1;
1R
1G
b10 T
b10 ("
b10 r"
1I
b10011 F"
b10 H
b10 ["
b10 c"
b10 n"
1j"
b10011 o"
b100 N
b100 <"
b100 O"
b0 3"
b1010 !
b1010 (
b1010 -
b1010 /"
b1010 Y"
b100 :
b100 R"
b100 V"
b100000000000110010011 9
b100000000000110010011 C"
b100010011 #
b100010011 &
b100010011 B
b100010011 E"
b100010011 b"
b100100010010000000000000000000000000000000000000000000000000000000000000000000000000000000000000000000000000000000010 ="
b100 :"
b100 <
b100 9"
b0 a
0g
b0 5"
0`
b0 ^
b0 Q"
b0 U"
b0 W
b0 T"
b10 2
b10000000000000000000000000000000000000000000000000000000000000000000010 H"
b0 0
b0 0"
b1 ,
b1 X"
b1010 *
b1010 -"
1+
b1100 8
b1100 M"
b1100 P"
b100000000000000100000000000110010011 @"
b1000 "
b1000 '
b1000 7
b1000 D"
b1000 N"
b1000 W"
b10000000000000000000000000100010011 B"
b10000000000000000000000000000000000000000000000000000000000000000000000000000000000000000000000000000000000 ?"
b1000000000000000000000000000000000000000000000000000000000000000000000010 8"
b10000000000000000000000000000000000000000000000000000000000000101000001 K"
1$
#60000
0$
#65000
b10 S
b10 )"
0;
b0 T
b0 ("
b0 r"
0G
0R
0I
b0 !
b0 (
b0 -
b0 /"
b0 Y"
b0 F"
b0 H
b0 ["
b0 c"
b0 n"
0j"
b0 o"
b0 N
b0 <"
b0 O"
b10 ,
b10 X"
b0 *
b0 -"
b0 2
b0 H"
01
b10 a
1g
b1000000000000000000000000000000000000000000000000000000000000000000000010 5"
1`
b100 ^
b100 Q"
b100 U"
b100 W
b100 T"
b0 #
b0 &
b0 B
b0 E"
b0 b"
b10000000000000000000000000000000000000000000000000000000000000000000000000000000000000000000000000000000000 ="
b0 :"
b0 <
b0 9"
b1000 :
b1000 R"
b1000 V"
b100010011 9
b100010011 C"
b10000000000000000000000000000000000000000000000000000000000000000000010 K"
b0 8"
b100100010010000000000000000000000000000000000000000000000000000000000000000000000000000000000000000000000000000000010 ?"
b0 B"
b1000 8
b1000 M"
b1000 P"
b10000000000000000000000000100010011 @"
b100 "
b100 '
b100 7
b100 D"
b100 N"
b100 W"
1$
#70000
0$
#75000
b10 S
b10 )"
1;
1R
1G
b10 T
b10 ("
b10 r"
1I
b10011 F"
b10 H
b10 ["
b10 c"
b10 n"
1j"
b10011 o"
b100 N
b100 <"
b100 O"
b100 :
b100 R"
b100 V"
b100000000000110010011 9
b100000000000110010011 C"
b100010011 #
b100010011 &
b100010011 B
b100010011 E"
b100010011 b"
b100100010010000000000000000000000000000000000000000000000000000000000000000000000000000000000000000000000000000000010 ="
b100 :"
b100 <
b100 9"
b0 a
0g
b0 5"
0`
b0 ^
b0 Q"
b0 U"
b0 W
b0 T"
b10 2
b10000000000000000000000000000000000000000000000000000000000000000000010 H"
11
b0 ,
b0 X"
0+
b1100 8
b1100 M"
b1100 P"
b100000000000000100000000000110010011 @"
b1000 "
b1000 '
b1000 7
b1000 D"
b1000 N"
b1000 W"
b10000000000000000000000000100010011 B"
b10000000000000000000000000000000000000000000000000000000000000000000000000000000000000000000000000000000000 ?"
b1000000000000000000000000000000000000000000000000000000000000000000000010 8"
b0 K"
1$
#80000
0$
#85000
b10 S
b10 )"
0;
b0 T
b0 ("
b0 r"
0G
0R
0I
b0 F"
b0 H
b0 ["
b0 c"
b0 n"
0j"
b0 o"
b0 N
b0 <"
b0 O"
b10 ,
b10 X"
1+
b0 2
b0 H"
01
b10 a
1g
b1000000000000000000000000000000000000000000000000000000000000000000000010 5"
1`
b100 ^
b100 Q"
b100 U"
b100 W
b100 T"
b0 #
b0 &
b0 B
b0 E"
b0 b"
b10000000000000000000000000000000000000000000000000000000000000000000000000000000000000000000000000000000000 ="
b0 :"
b0 <
b0 9"
b1000 :
b1000 R"
b1000 V"
b100010011 9
b100010011 C"
b10000000000000000000000000000000000000000000000000000000000000000000010 K"
b0 8"
b100100010010000000000000000000000000000000000000000000000000000000000000000000000000000000000000000000000000000000010 ?"
b0 B"
b1000 8
b1000 M"
b1000 P"
b10000000000000000000000000100010011 @"
b100 "
b100 '
b100 7
b100 D"
b100 N"
b100 W"
1$
#90000
0$
#95000
b10 S
b10 )"
1;
1R
1G
b10 T
b10 ("
b10 r"
1I
b10011 F"
b10 H
b10 ["
b10 c"
b10 n"
1j"
b10011 o"
b100 N
b100 <"
b100 O"
b100 :
b100 R"
b100 V"
b100000000000110010011 9
b100000000000110010011 C"
b100010011 #
b100010011 &
b100010011 B
b100010011 E"
b100010011 b"
b100100010010000000000000000000000000000000000000000000000000000000000000000000000000000000000000000000000000000000010 ="
b100 :"
b100 <
b100 9"
b0 a
0g
b0 5"
0`
b0 ^
b0 Q"
b0 U"
b0 W
b0 T"
b10 2
b10000000000000000000000000000000000000000000000000000000000000000000010 H"
11
b0 ,
b0 X"
0+
b1100 8
b1100 M"
b1100 P"
b100000000000000100000000000110010011 @"
b1000 "
b1000 '
b1000 7
b1000 D"
b1000 N"
b1000 W"
b10000000000000000000000000100010011 B"
b10000000000000000000000000000000000000000000000000000000000000000000000000000000000000000000000000000000000 ?"
b1000000000000000000000000000000000000000000000000000000000000000000000010 8"
b0 K"
1$
#100000
0$
#105000
b10 S
b10 )"
0;
b0 T
b0 ("
b0 r"
0G
0R
0I
b0 F"
b0 H
b0 ["
b0 c"
b0 n"
0j"
b0 o"
b0 N
b0 <"
b0 O"
b10 ,
b10 X"
1+
b0 2
b0 H"
01
b10 a
1g
b1000000000000000000000000000000000000000000000000000000000000000000000010 5"
1`
b100 ^
b100 Q"
b100 U"
b100 W
b100 T"
b0 #
b0 &
b0 B
b0 E"
b0 b"
b10000000000000000000000000000000000000000000000000000000000000000000000000000000000000000000000000000000000 ="
b0 :"
b0 <
b0 9"
b1000 :
b1000 R"
b1000 V"
b100010011 9
b100010011 C"
b10000000000000000000000000000000000000000000000000000000000000000000010 K"
b0 8"
b100100010010000000000000000000000000000000000000000000000000000000000000000000000000000000000000000000000000000000010 ?"
b0 B"
b1000 8
b1000 M"
b1000 P"
b10000000000000000000000000100010011 @"
b100 "
b100 '
b100 7
b100 D"
b100 N"
b100 W"
1$
#110000
0$
#115000
b10 S
b10 )"
1;
1R
1G
b10 T
b10 ("
b10 r"
1I
b10011 F"
b10 H
b10 ["
b10 c"
b10 n"
1j"
b10011 o"
b100 N
b100 <"
b100 O"
b100 :
b100 R"
b100 V"
b100000000000110010011 9
b100000000000110010011 C"
b100010011 #
b100010011 &
b100010011 B
b100010011 E"
b100010011 b"
b100100010010000000000000000000000000000000000000000000000000000000000000000000000000000000000000000000000000000000010 ="
b100 :"
b100 <
b100 9"
b0 a
0g
b0 5"
0`
b0 ^
b0 Q"
b0 U"
b0 W
b0 T"
b10 2
b10000000000000000000000000000000000000000000000000000000000000000000010 H"
11
b0 ,
b0 X"
0+
b1100 8
b1100 M"
b1100 P"
b100000000000000100000000000110010011 @"
b1000 "
b1000 '
b1000 7
b1000 D"
b1000 N"
b1000 W"
b10000000000000000000000000100010011 B"
b10000000000000000000000000000000000000000000000000000000000000000000000000000000000000000000000000000000000 ?"
b1000000000000000000000000000000000000000000000000000000000000000000000010 8"
b0 K"
1$
#120000
0$
#125000
b10 S
b10 )"
0;
b0 T
b0 ("
b0 r"
0G
0R
0I
b0 F"
b0 H
b0 ["
b0 c"
b0 n"
0j"
b0 o"
b0 N
b0 <"
b0 O"
b10 ,
b10 X"
1+
b0 2
b0 H"
01
b10 a
1g
b1000000000000000000000000000000000000000000000000000000000000000000000010 5"
1`
b100 ^
b100 Q"
b100 U"
b100 W
b100 T"
b0 #
b0 &
b0 B
b0 E"
b0 b"
b10000000000000000000000000000000000000000000000000000000000000000000000000000000000000000000000000000000000 ="
b0 :"
b0 <
b0 9"
b1000 :
b1000 R"
b1000 V"
b100010011 9
b100010011 C"
b10000000000000000000000000000000000000000000000000000000000000000000010 K"
b0 8"
b100100010010000000000000000000000000000000000000000000000000000000000000000000000000000000000000000000000000000000010 ?"
b0 B"
b1000 8
b1000 M"
b1000 P"
b10000000000000000000000000100010011 @"
b100 "
b100 '
b100 7
b100 D"
b100 N"
b100 W"
1$
#130000
0$
#135000
b10 S
b10 )"
1;
1R
1G
b10 T
b10 ("
b10 r"
1I
b10011 F"
b10 H
b10 ["
b10 c"
b10 n"
1j"
b10011 o"
b100 N
b100 <"
b100 O"
b100 :
b100 R"
b100 V"
b100000000000110010011 9
b100000000000110010011 C"
b100010011 #
b100010011 &
b100010011 B
b100010011 E"
b100010011 b"
b100100010010000000000000000000000000000000000000000000000000000000000000000000000000000000000000000000000000000000010 ="
b100 :"
b100 <
b100 9"
b0 a
0g
b0 5"
0`
b0 ^
b0 Q"
b0 U"
b0 W
b0 T"
b10 2
b10000000000000000000000000000000000000000000000000000000000000000000010 H"
11
b0 ,
b0 X"
0+
b1100 8
b1100 M"
b1100 P"
b100000000000000100000000000110010011 @"
b1000 "
b1000 '
b1000 7
b1000 D"
b1000 N"
b1000 W"
b10000000000000000000000000100010011 B"
b10000000000000000000000000000000000000000000000000000000000000000000000000000000000000000000000000000000000 ?"
b1000000000000000000000000000000000000000000000000000000000000000000000010 8"
b0 K"
1$
#140000
0$
#145000
b10 S
b10 )"
0;
b0 T
b0 ("
b0 r"
0G
0R
0I
b0 F"
b0 H
b0 ["
b0 c"
b0 n"
0j"
b0 o"
b0 N
b0 <"
b0 O"
b10 ,
b10 X"
1+
b0 2
b0 H"
01
b10 a
1g
b1000000000000000000000000000000000000000000000000000000000000000000000010 5"
1`
b100 ^
b100 Q"
b100 U"
b100 W
b100 T"
b0 #
b0 &
b0 B
b0 E"
b0 b"
b10000000000000000000000000000000000000000000000000000000000000000000000000000000000000000000000000000000000 ="
b0 :"
b0 <
b0 9"
b1000 :
b1000 R"
b1000 V"
b100010011 9
b100010011 C"
b10000000000000000000000000000000000000000000000000000000000000000000010 K"
b0 8"
b100100010010000000000000000000000000000000000000000000000000000000000000000000000000000000000000000000000000000000010 ?"
b0 B"
b1000 8
b1000 M"
b1000 P"
b10000000000000000000000000100010011 @"
b100 "
b100 '
b100 7
b100 D"
b100 N"
b100 W"
1$
#150000
0$
#155000
b10 S
b10 )"
1;
1R
1G
b10 T
b10 ("
b10 r"
1I
b10011 F"
b10 H
b10 ["
b10 c"
b10 n"
1j"
b10011 o"
b100 N
b100 <"
b100 O"
b100 :
b100 R"
b100 V"
b100000000000110010011 9
b100000000000110010011 C"
b100010011 #
b100010011 &
b100010011 B
b100010011 E"
b100010011 b"
b100100010010000000000000000000000000000000000000000000000000000000000000000000000000000000000000000000000000000000010 ="
b100 :"
b100 <
b100 9"
b0 a
0g
b0 5"
0`
b0 ^
b0 Q"
b0 U"
b0 W
b0 T"
b10 2
b10000000000000000000000000000000000000000000000000000000000000000000010 H"
11
b0 ,
b0 X"
0+
b1100 8
b1100 M"
b1100 P"
b100000000000000100000000000110010011 @"
b1000 "
b1000 '
b1000 7
b1000 D"
b1000 N"
b1000 W"
b10000000000000000000000000100010011 B"
b10000000000000000000000000000000000000000000000000000000000000000000000000000000000000000000000000000000000 ?"
b1000000000000000000000000000000000000000000000000000000000000000000000010 8"
b0 K"
1$
#160000
0$
#165000
b10 S
b10 )"
0;
b0 T
b0 ("
b0 r"
0G
0R
0I
b0 F"
b0 H
b0 ["
b0 c"
b0 n"
0j"
b0 o"
b0 N
b0 <"
b0 O"
b10 ,
b10 X"
1+
b0 2
b0 H"
01
b10 a
1g
b1000000000000000000000000000000000000000000000000000000000000000000000010 5"
1`
b100 ^
b100 Q"
b100 U"
b100 W
b100 T"
b0 #
b0 &
b0 B
b0 E"
b0 b"
b10000000000000000000000000000000000000000000000000000000000000000000000000000000000000000000000000000000000 ="
b0 :"
b0 <
b0 9"
b1000 :
b1000 R"
b1000 V"
b100010011 9
b100010011 C"
b10000000000000000000000000000000000000000000000000000000000000000000010 K"
b0 8"
b100100010010000000000000000000000000000000000000000000000000000000000000000000000000000000000000000000000000000000010 ?"
b0 B"
b1000 8
b1000 M"
b1000 P"
b10000000000000000000000000100010011 @"
b100 "
b100 '
b100 7
b100 D"
b100 N"
b100 W"
1$
#170000
0$
#175000
b10 S
b10 )"
1;
1R
1G
b10 T
b10 ("
b10 r"
1I
b10011 F"
b10 H
b10 ["
b10 c"
b10 n"
1j"
b10011 o"
b100 N
b100 <"
b100 O"
b100 :
b100 R"
b100 V"
b100000000000110010011 9
b100000000000110010011 C"
b100010011 #
b100010011 &
b100010011 B
b100010011 E"
b100010011 b"
b100100010010000000000000000000000000000000000000000000000000000000000000000000000000000000000000000000000000000000010 ="
b100 :"
b100 <
b100 9"
b0 a
0g
b0 5"
0`
b0 ^
b0 Q"
b0 U"
b0 W
b0 T"
b10 2
b10000000000000000000000000000000000000000000000000000000000000000000010 H"
11
b0 ,
b0 X"
0+
b1100 8
b1100 M"
b1100 P"
b100000000000000100000000000110010011 @"
b1000 "
b1000 '
b1000 7
b1000 D"
b1000 N"
b1000 W"
b10000000000000000000000000100010011 B"
b10000000000000000000000000000000000000000000000000000000000000000000000000000000000000000000000000000000000 ?"
b1000000000000000000000000000000000000000000000000000000000000000000000010 8"
b0 K"
1$
#180000
0$
#185000
b10 S
b10 )"
0;
b0 T
b0 ("
b0 r"
0G
0R
0I
b0 F"
b0 H
b0 ["
b0 c"
b0 n"
0j"
b0 o"
b0 N
b0 <"
b0 O"
b10 ,
b10 X"
1+
b0 2
b0 H"
01
b10 a
1g
b1000000000000000000000000000000000000000000000000000000000000000000000010 5"
1`
b100 ^
b100 Q"
b100 U"
b100 W
b100 T"
b0 #
b0 &
b0 B
b0 E"
b0 b"
b10000000000000000000000000000000000000000000000000000000000000000000000000000000000000000000000000000000000 ="
b0 :"
b0 <
b0 9"
b1000 :
b1000 R"
b1000 V"
b100010011 9
b100010011 C"
b10000000000000000000000000000000000000000000000000000000000000000000010 K"
b0 8"
b100100010010000000000000000000000000000000000000000000000000000000000000000000000000000000000000000000000000000000010 ?"
b0 B"
b1000 8
b1000 M"
b1000 P"
b10000000000000000000000000100010011 @"
b100 "
b100 '
b100 7
b100 D"
b100 N"
b100 W"
1$
#190000
0$
