CPU.vcd
$date
	Tue Jun 02 11:04:22 2026
$end
$version
	Icarus Verilog
$end
$timescale
	1ps
$end
$scope module Pipeline_CPU_tb $end
$var wire 32 ! wb_data [31:0] $end
$var wire 32 " current_pc [31:0] $end
$var wire 32 # current_inst [31:0] $end
$var reg 1 $ clk $end
$var reg 1 % reset $end
$scope module uut $end
$var wire 1 $ clk $end
$var wire 32 & current_inst [31:0] $end
$var wire 32 ' current_pc [31:0] $end
$var wire 1 % reset $end
$var wire 32 ( wb_data [31:0] $end
$var wire 32 ) WB_read_data [31:0] $end
$var wire 32 * WB_Result [31:0] $end
$var wire 1 + WB_RegWrite $end
$var wire 5 , WB_Rd [4:0] $end
$var wire 32 - WB_OUT [31:0] $end
$var wire 1 . WB_MemtoReg $end
$var wire 32 / MEM_read_data [31:0] $end
$var wire 32 0 MEM_Result [31:0] $end
$var wire 1 1 MEM_RegWrite $end
$var wire 5 2 MEM_Rd [4:0] $end
$var wire 1 3 MEM_MemtoReg $end
$var wire 1 4 MEM_MemWrite $end
$var wire 1 5 MEM_MemRead $end
$var wire 32 6 MEM_B [31:0] $end
$var wire 32 7 IF_pc [31:0] $end
$var wire 32 8 IF_next_pc [31:0] $end
$var wire 32 9 IF_instruction [31:0] $end
$var wire 32 : IF_final_next_pc [31:0] $end
$var wire 1 ; IF_ID_flush $end
$var wire 32 < ID_pc [31:0] $end
$var wire 1 = ID_is_JALR $end
$var wire 1 > ID_is_JAL $end
$var wire 1 ? ID_is_BNE $end
$var wire 1 @ ID_is_BLT $end
$var wire 1 A ID_is_BGE $end
$var wire 1 B ID_is_BEQ $end
$var wire 32 C ID_instruction [31:0] $end
$var wire 32 D ID_imm [31:0] $end
$var wire 1 E ID_funct7_bit30 $end
$var wire 5 F ID_Rs2 [4:0] $end
$var wire 5 G ID_Rs1 [4:0] $end
$var wire 1 H ID_RegWrite $end
$var wire 5 I ID_Rd [4:0] $end
$var wire 1 J ID_PCSrc $end
$var wire 1 K ID_MemtoReg $end
$var wire 1 L ID_MemWrite $end
$var wire 1 M ID_MemRead $end
$var wire 3 N ID_Funct3 [2:0] $end
$var wire 32 O ID_Early_Target [31:0] $end
$var wire 1 P ID_EX_flush $end
$var wire 1 Q ID_Branch $end
$var wire 32 R ID_B [31:0] $end
$var wire 1 S ID_ALUsrc $end
$var wire 4 T ID_ALU_Control [3:0] $end
$var wire 2 U ID_ALUOp [1:0] $end
$var wire 32 V ID_A [31:0] $end
$var wire 1 W EX_sign $end
$var wire 32 X EX_pc [31:0] $end
$var wire 1 Y EX_is_BNE $end
$var wire 1 Z EX_is_BLT $end
$var wire 1 [ EX_is_BGE $end
$var wire 1 \ EX_is_BEQ $end
$var wire 32 ] EX_imm [31:0] $end
$var wire 1 ^ EX_ZF $end
$var wire 32 _ EX_Target [31:0] $end
$var wire 32 ` EX_Result [31:0] $end
$var wire 1 a EX_RegWrite $end
$var wire 5 b EX_Rd [4:0] $end
$var wire 1 c EX_PCsrc $end
$var wire 1 d EX_MemtoReg $end
$var wire 1 e EX_MemWrite $end
$var wire 1 f EX_MemRead $end
$var wire 32 g EX_B [31:0] $end
$var wire 1 h EX_ALUsrc $end
$var wire 32 i EX_ALU_in_b [31:0] $end
$var wire 4 j EX_ALU_Control [3:0] $end
$var wire 32 k EX_A [31:0] $end
$scope module u_ALU $end
$var wire 32 l A [31:0] $end
$var wire 4 m ALU_Control [3:0] $end
$var wire 1 W sign $end
$var wire 32 n shift_result [31:0] $end
$var wire 32 o logic_result [31:0] $end
$var wire 32 p calculate_result [31:0] $end
$var wire 1 ^ ZF $end
$var wire 32 q Result [31:0] $end
$var wire 32 r B [31:0] $end
$scope module MUX $end
$var wire 4 s ALU_Control [3:0] $end
$var wire 32 t shift_result [31:0] $end
$var wire 32 u logic_result [31:0] $end
$var wire 32 v calculate_result [31:0] $end
$var reg 32 w ALU_result [31:0] $end
$upscope $end
$scope module u_Adder $end
$var wire 32 x A [31:0] $end
$var wire 4 y ALU_Control [3:0] $end
$var wire 1 W sign $end
$var wire 32 z calculate_result [31:0] $end
$var wire 1 ^ ZF $end
$var wire 32 { B [31:0] $end
$var reg 33 | tmp_result [32:0] $end
$upscope $end
$scope module u_Logic $end
$var wire 32 } A [31:0] $end
$var wire 4 ~ ALU_Control [3:0] $end
$var wire 32 !" B [31:0] $end
$var reg 32 "" logic_result [31:0] $end
$upscope $end
$scope module u_Shift $end
$var wire 32 #" A [31:0] $end
$var wire 4 $" ALU_Control [3:0] $end
$var wire 5 %" shift_amt [4:0] $end
$var wire 32 &" B [31:0] $end
$var reg 32 '" shift_result [31:0] $end
$upscope $end
$upscope $end
$scope module u_ALU_Control $end
$var wire 1 E funct7_bit30 $end
$var wire 3 (" Funct3 [2:0] $end
$var wire 2 )" ALUOp [1:0] $end
$var reg 4 *" ALU_Control [3:0] $end
$upscope $end
$scope module u_ALUsrc $end
$var wire 1 h ALUsrc $end
$var wire 32 +" B [31:0] $end
$var wire 32 ," Imm [31:0] $end
$var wire 32 -" ALU_in_b [31:0] $end
$upscope $end
$scope module u_CPU_MUX $end
$var wire 32 ." ALU_result [31:0] $end
$var wire 1 . MemtoReg $end
$var wire 32 /" mem_read_data [31:0] $end
$var wire 32 0" OUT [31:0] $end
$upscope $end
$scope module u_Data_Memory $end
$var wire 1 5 MemRead $end
$var wire 1 4 MemWrite $end
$var wire 32 1" addr [31:0] $end
$var wire 1 $ clk $end
$var wire 1 % reset $end
$var wire 32 2" write_data [31:0] $end
$var wire 32 3" read_data [31:0] $end
$var wire 5 4" index [4:0] $end
$var integer 32 5" i [31:0] $end
$upscope $end
$scope module u_EX_MEM_reg $end
$var wire 73 6" D [72:0] $end
$var wire 1 $ clk $end
$var wire 1 7" flush $end
$var wire 1 % reset $end
$var wire 1 8" stall $end
$var reg 73 9" Q [72:0] $end
$upscope $end
$scope module u_Early_Jump_Unit $end
$var wire 32 :" JALR_add [31:0] $end
$var wire 32 ;" pc [31:0] $end
$var wire 1 = is_JALR $end
$var wire 1 > is_JAL $end
$var wire 32 <" Rs1_data [31:0] $end
$var wire 32 =" JAL_add [31:0] $end
$var wire 32 >" Imm [31:0] $end
$var reg 32 ?" Early_Target [31:0] $end
$var reg 1 J PCSrc $end
$upscope $end
$scope module u_Hazard_Unit $end
$var wire 1 J ID_PCSrc $end
$var wire 1 c EX_PCSrc $end
$var reg 1 P ID_EX_flush $end
$var reg 1 ; IF_ID_flush $end
$upscope $end
$scope module u_ID_EX_reg $end
$var wire 146 @" D [145:0] $end
$var wire 1 $ clk $end
$var wire 1 P flush $end
$var wire 1 % reset $end
$var wire 1 A" stall $end
$var reg 146 B" Q [145:0] $end
$upscope $end
$scope module u_IF_ID_reg $end
$var wire 64 C" D [63:0] $end
$var wire 1 $ clk $end
$var wire 1 ; flush $end
$var wire 1 % reset $end
$var wire 1 D" stall $end
$var reg 64 E" Q [63:0] $end
$upscope $end
$scope module u_IMEM $end
$var wire 32 F" instruction [31:0] $end
$var wire 32 G" pc [31:0] $end
$upscope $end
$scope module u_ImmGen $end
$var wire 32 H" inst [31:0] $end
$var wire 7 I" Opcode [6:0] $end
$var reg 32 J" imm_out [31:0] $end
$upscope $end
$scope module u_MEM_WB_reg $end
$var wire 71 K" D [70:0] $end
$var wire 1 $ clk $end
$var wire 1 L" flush $end
$var wire 1 % reset $end
$var wire 1 M" stall $end
$var reg 71 N" Q [70:0] $end
$upscope $end
$scope module u_PCSrc $end
$var wire 1 c PCSrc $end
$var wire 1 ^ ZF $end
$var wire 1 \ is_BEQ $end
$var wire 1 [ is_BGE $end
$var wire 1 Z is_BLT $end
$var wire 1 Y is_BNE $end
$var wire 1 O" sign $end
$upscope $end
$scope module u_PC_Adder $end
$var wire 32 P" next_pc [31:0] $end
$var wire 32 Q" current_pc [31:0] $end
$upscope $end
$scope module u_PC_MUX $end
$var wire 1 c EX_PCSrc $end
$var wire 32 R" Early_Target [31:0] $end
$var wire 1 J ID_PCSrc $end
$var wire 32 S" next_pc [31:0] $end
$var wire 32 T" Target [31:0] $end
$var reg 32 U" final_next_pc [31:0] $end
$upscope $end
$scope module u_PC_Target $end
$var wire 32 V" imm [31:0] $end
$var wire 32 W" pc [31:0] $end
$var wire 32 X" Target [31:0] $end
$upscope $end
$scope module u_PC_reg $end
$var wire 1 $ clk $end
$var wire 32 Y" next_pc [31:0] $end
$var wire 1 % reset $end
$var reg 32 Z" pc [31:0] $end
$upscope $end
$scope module u_Regfile $end
$var wire 1 $ clk $end
$var wire 1 % reset $end
$var wire 1 + we $end
$var wire 5 [" we_addr [4:0] $end
$var wire 32 \" we_data [31:0] $end
$var wire 32 ]" Rt_data [31:0] $end
$var wire 5 ^" Rt_addr [4:0] $end
$var wire 32 _" Rs2_data [31:0] $end
$var wire 5 `" Rs2_addr [4:0] $end
$var wire 32 a" Rs1_data [31:0] $end
$var wire 5 b" Rs1_addr [4:0] $end
$var integer 32 c" i [31:0] $end
$upscope $end
$scope module u_decoder $end
$var wire 3 d" funct3 [2:0] $end
$var wire 32 e" instruction [31:0] $end
$var wire 5 f" rd [4:0] $end
$var wire 5 g" rs1 [4:0] $end
$var wire 5 h" rs2 [4:0] $end
$var wire 1 i" is_store $end
$var wire 1 j" is_load $end
$var wire 1 k" is_branch $end
$var wire 1 l" is_R_type $end
$var wire 1 m" is_Imm_alu $end
$var wire 1 n" is_FPU $end
$var wire 1 E funct7_bit30 $end
$var wire 5 o" Rs2 [4:0] $end
$var wire 5 p" Rs1 [4:0] $end
$var wire 5 q" Rd [4:0] $end
$var wire 7 r" Opcode [6:0] $end
$var wire 7 s" Funct7 [6:0] $end
$var wire 3 t" Funct3 [2:0] $end
$var reg 2 u" ALUOp [1:0] $end
$var reg 1 S ALUsrc $end
$var reg 1 Q Branch $end
$var reg 1 v" FPU_en $end
$var reg 1 M MemRead $end
$var reg 1 L MemWrite $end
$var reg 1 K MemtoReg $end
$var reg 1 H RegWrite $end
$var reg 1 B is_BEQ $end
$var reg 1 A is_BGE $end
$var reg 1 @ is_BLT $end
$var reg 1 ? is_BNE $end
$var reg 1 > is_JAL $end
$var reg 1 = is_JALR $end
$var reg 1 w" is_LW $end
$var reg 1 x" is_SW $end
$upscope $end
$upscope $end
$upscope $end
$enddefinitions $end
#0
$dumpvars
0x"
0w"
0v"
b0 u"
b0 t"
b0 s"
b0 r"
b0 q"
b0 p"
b0 o"
0n"
0m"
0l"
0k"
0j"
0i"
b0 h"
b0 g"
b0 f"
b0 e"
b0 d"
b100000 c"
b0 b"
b0 a"
b0 `"
b0 _"
b0 ^"
b0 ]"
b0 \"
b0 ["
b0 Z"
b100 Y"
b0 X"
b0 W"
b0 V"
b100 U"
b0 T"
b100 S"
b0 R"
b0 Q"
b100 P"
zO"
b0 N"
0M"
0L"
b0 K"
b0 J"
b0 I"
b0 H"
b0 G"
b101000000000000010010011 F"
b0 E"
0D"
b101000000000000010010011 C"
b0 B"
0A"
b10000000000000000000000000000000000000000000000000000000000000000000000000000000000000000000000000000000000 @"
b0 ?"
b0 >"
b0 ="
b0 <"
b0 ;"
b0 :"
b0 9"
08"
07"
b0 6"
b100000 5"
b0 4"
b0 3"
b0 2"
b0 1"
b0 0"
b0 /"
b0 ."
b0 -"
b0 ,"
b0 +"
b10 *"
b0 )"
b0 ("
b0 '"
b0 &"
b0 %"
b0 $"
b0 #"
b0 ""
b0 !"
b0 ~
b0 }
b0 |
b0 {
b0 z
b0 y
b0 x
b0 w
b0 v
b0 u
b0 t
b0 s
b0 r
b0 q
b0 p
b0 o
b0 n
b0 m
b0 l
b0 k
b0 j
b0 i
0h
b0 g
0f
0e
0d
0c
b0 b
0a
b0 `
b0 _
1^
b0 ]
0\
0[
0Z
0Y
b0 X
0W
b0 V
b0 U
b10 T
0S
b0 R
0Q
0P
b0 O
b0 N
0M
0L
0K
0J
b0 I
0H
b0 G
b0 F
0E
b0 D
b0 C
0B
0A
0@
0?
0>
0=
b0 <
0;
b100 :
b101000000000000010010011 9
b100 8
b0 7
b0 6
05
04
03
b0 2
01
b0 0
b0 /
0.
b0 -
b0 ,
0+
b0 *
b0 )
b0 (
b0 '
b0 &
1%
0$
b0 #
b0 "
b0 !
$end
#5000
b100000 5"
b100000 c"
1$
#10000
0$
#15000
b100000 c"
b100000 5"
1$
#20000
0%
0$
#25000
b10 T
b10 *"
b1010 :"
1S
1H
b10 U
b10 )"
b10 u"
b1010 ="
b1010 D
b1010 >"
b1010 J"
b10011 I"
b1010 F
b1010 `"
b1010 h"
b1010 o"
b100010010000000000000000000000000000000000000000000000000000000000000000000000000000000000000000000000000101000001 @"
b1 I
b1 ^"
b1 f"
b1 q"
1m"
b10011 r"
b10 j
b10 m
b10 s
b10 y
b10 ~
b10 $"
b101000000000000010010011 #
b101000000000000010010011 &
b101000000000000010010011 C
b101000000000000010010011 H"
b101000000000000010010011 e"
b1000 :
b1000 U"
b1000 Y"
b1010000000000000100010011 9
b1010000000000000100010011 F"
b10000000000000000000000000000000000000000000000000000000000000000000000000000000000000000000000000000000000 B"
b101000000000000010010011 E"
b1000 8
b1000 P"
b1000 S"
b10000000001010000000000000100010011 C"
b100 "
b100 '
b100 7
b100 G"
b100 Q"
b100 Z"
1$
#30000
0$
#35000
0^
b1010 `
b1010 q
b1010 w
b1010 p
b1010 v
b1010 z
b10100 :"
b1010 %"
b1010 |
b10100 D
b10100 >"
b10100 J"
b10100 F
b10100 `"
b10100 h"
b10100 o"
b10 I
b10 ^"
b10 f"
b10 q"
b100 O
b100 ?"
b100 R"
b1010 i
b1010 r
b1010 {
b1010 !"
b1010 &"
b1010 -"
b1100 :
b1100 U"
b1100 Y"
b1100000000000001100010011 9
b1100000000000001100010011 F"
b1010000000000000100010011 #
b1010000000000000100010011 &
b1010000000000000100010011 C
b1010000000000000100010011 H"
b1010000000000000100010011 e"
b100100010010000000000000000000000000000000000000000000000000000000000000000000000000000000000000000000000001010000010 @"
b11000 ="
b100 <
b100 ;"
b1 b
b1010 _
b1010 T"
b1010 X"
b1010 ]
b1010 ,"
b1010 V"
1h
b1000000000000000000000000000000010100000000000000000000000000000000000001 6"
1a
b1100 8
b1100 P"
b1100 S"
b100000000001100000000000001100010011 C"
b1000 "
b1000 '
b1000 7
b1000 G"
b1000 Q"
b1000 Z"
b10000000001010000000000000100010011 E"
b100010010000000000000000000000000000000000000000000000000000000000000000000000000000000000000000000000000101000001 B"
1$
#40000
0$
#45000
b10100 `
b10100 q
b10100 w
b10100 p
b10100 v
b10100 z
b10100 %"
b10100 |
b11000 :"
b10 4"
b10100 i
b10100 r
b10100 {
b10100 !"
b10100 &"
b10100 -"
b11000 D
b11000 >"
b11000 J"
b11000 F
b11000 `"
b11000 h"
b11000 o"
b110 I
b110 ^"
b110 f"
b110 q"
b1000 O
b1000 ?"
b1000 R"
b1 2
b1010 0
b1010 1"
b10000000000000000000000000000000000000000000000000000000000000101000001 K"
11
b1000000000000000000000000000000101000000000000000000000000000000000000010 6"
b10 b
b10100 ]
b10100 ,"
b10100 V"
b11000 _
b11000 T"
b11000 X"
b100 X
b100 W"
b1100000000000001100010011 #
b1100000000000001100010011 &
b1100000000000001100010011 C
b1100000000000001100010011 H"
b1100000000000001100010011 e"
b1000100010010000000000000000000000000000000000000000000000000000000000000000000000000000000000000000000000001100000110 @"
b100000 ="
b1000 <
b1000 ;"
b10000 :
b10000 U"
b10000 Y"
b110000001011100111 9
b110000001011100111 F"
b1000000000000000000000000000000010100000000000000000000000000000000000001 9"
b100100010010000000000000000000000000000000000000000000000000000000000000000000000000000000000000000000000001010000010 B"
b100000000001100000000000001100010011 E"
b10000 8
b10000 P"
b10000 S"
b110000000000000000110000001011100111 C"
b1100 "
b1100 '
b1100 7
b1100 G"
b1100 Q"
b1100 Z"
1$
#50000
0$
#55000
b11000 `
b11000 q
b11000 w
1;
b10 T
b10 *"
b11000 p
b11000 v
b11000 z
b0 :"
1J
1Q
1=
b0 U
b0 )"
b0 u"
1H
1S
b11000 %"
b11000 |
b0 D
b0 >"
b0 J"
b1100111 I"
b0 F
b0 `"
b0 h"
b0 o"
b110 G
b110 b"
b110 g"
b110 p"
b101 I
b101 ^"
b101 f"
b101 q"
0m"
b1100111 r"
b0 O
b0 ?"
b0 R"
b11000 i
b11000 r
b11000 {
b11000 !"
b11000 &"
b11000 -"
b101 4"
b1010 !
b1010 (
b1010 -
b1010 0"
b1010 \"
b0 :
b0 U"
b0 Y"
b110001100000000000000010011 9
b110001100000000000000010011 F"
b110000001011100111 #
b110000001011100111 &
b110000001011100111 C
b110000001011100111 H"
b110000001011100111 e"
b1100100010010000000000000000000000000000000000000000000000000000000000000000000000000000000000000000000000000000000101 @"
b1100 ="
b1100 <
b1100 ;"
b1000000000000000000000000000000110000000000000000000000000000000000000110 6"
b110 b
b11000 ]
b11000 ,"
b11000 V"
b100000 _
b100000 T"
b100000 X"
b1000 X
b1000 W"
b10 2
b10000000000000000000000000000000000000000000000000000000000001010000010 K"
b10100 0
b10100 1"
b1 ,
b1 ["
b1010 *
b1010 ."
1+
b10100 8
b10100 P"
b10100 S"
b1000000000110001100000000000000010011 C"
b10000 "
b10000 '
b10000 7
b10000 G"
b10000 Q"
b10000 Z"
b110000000000000000110000001011100111 E"
b1000100010010000000000000000000000000000000000000000000000000000000000000000000000000000000000000000000000001100000110 B"
b1000000000000000000000000000000101000000000000000000000000000000000000010 9"
b10000000000000000000000000000000000000000000000000000000000000101000001 N"
1$
#60000
0$
#65000
1^
b0 `
b0 q
b0 w
b0 p
b0 v
b0 z
b0 %"
b0 |
0H
0Q
0S
0=
0;
b10100 !
b10100 (
b10100 -
b10100 0"
b10100 \"
b110 4"
b0 i
b0 r
b0 {
b0 !"
b0 &"
b0 -"
b0 I"
b0 G
b0 b"
b0 g"
b0 p"
b0 I
b0 ^"
b0 f"
b0 q"
b0 r"
0J
b10 ,
b10 ["
b10100 *
b10100 ."
b110 2
b10000000000000000000000000000000000000000000000000000000000001100000110 K"
b11000 0
b11000 1"
b1000000000000000000000000000000000000000000000000000000000000000000000101 6"
b101 b
b0 ]
b0 ,"
b0 V"
b1100 _
b1100 T"
b1100 X"
b1100 X
b1100 W"
b0 #
b0 &
b0 C
b0 H"
b0 e"
b10000000000000000000000000000000000000000000000000000000000000000000000000000000000000000000000000000000000 @"
b0 ="
b0 <
b0 ;"
b100 :
b100 U"
b100 Y"
b101000000000000010010011 9
b101000000000000010010011 F"
b10000000000000000000000000000000000000000000000000000000000001010000010 N"
b1000000000000000000000000000000110000000000000000000000000000000000000110 9"
b1100100010010000000000000000000000000000000000000000000000000000000000000000000000000000000000000000000000000000000101 B"
b0 E"
b100 8
b100 P"
b100 S"
b101000000000000010010011 C"
b0 "
b0 '
b0 7
b0 G"
b0 Q"
b0 Z"
1$
#70000
0$
#75000
b10 T
b10 *"
b1010 :"
b1010 ]"
1S
1H
b10 U
b10 )"
b10 u"
b1010 ="
b1010 D
b1010 >"
b1010 J"
b10011 I"
b1010 F
b1010 `"
b1010 h"
b1010 o"
b100010010000000000000000000000000000000000000000000000000000000000000000000000000000000000000000000000000101000001 @"
b1 I
b1 ^"
b1 f"
b1 q"
1m"
b10011 r"
b0 4"
b11000 !
b11000 (
b11000 -
b11000 0"
b11000 \"
b1000 :
b1000 U"
b1000 Y"
b1010000000000000100010011 9
b1010000000000000100010011 F"
b101000000000000010010011 #
b101000000000000010010011 &
b101000000000000010010011 C
b101000000000000010010011 H"
b101000000000000010010011 e"
b0 b
0h
b0 6"
0a
b0 _
b0 T"
b0 X"
b0 X
b0 W"
b101 2
b10000000000000000000000000000000000000000000000000000000000000000000101 K"
b0 0
b0 1"
b110 ,
b110 ["
b11000 *
b11000 ."
b1000 8
b1000 P"
b1000 S"
b10000000001010000000000000100010011 C"
b100 "
b100 '
b100 7
b100 G"
b100 Q"
b100 Z"
b101000000000000010010011 E"
b10000000000000000000000000000000000000000000000000000000000000000000000000000000000000000000000000000000000 B"
b1000000000000000000000000000000000000000000000000000000000000000000000101 9"
b10000000000000000000000000000000000000000000000000000000000001100000110 N"
1$
#80000
0$
#85000
0^
b1010 `
b1010 q
b1010 w
b1010 p
b1010 v
b1010 z
b1010 %"
b1010 |
b10100 :"
b10100 ]"
b0 !
b0 (
b0 -
b0 0"
b0 \"
b1010 i
b1010 r
b1010 {
b1010 !"
b1010 &"
b1010 -"
b10100 D
b10100 >"
b10100 J"
b10100 F
b10100 `"
b10100 h"
b10100 o"
b10 I
b10 ^"
b10 f"
b10 q"
b100 O
b100 ?"
b100 R"
b101 ,
b101 ["
b0 *
b0 ."
b0 2
b0 K"
01
b1 b
b1010 _
b1010 T"
b1010 X"
b1010 ]
b1010 ,"
b1010 V"
1h
b1000000000000000000000000000000010100000000000000000000000000000000000001 6"
1a
b1010000000000000100010011 #
b1010000000000000100010011 &
b1010000000000000100010011 C
b1010000000000000100010011 H"
b1010000000000000100010011 e"
b100100010010000000000000000000000000000000000000000000000000000000000000000000000000000000000000000000000001010000010 @"
b11000 ="
b100 <
b100 ;"
b1100 :
b1100 U"
b1100 Y"
b1100000000000001100010011 9
b1100000000000001100010011 F"
b10000000000000000000000000000000000000000000000000000000000000000000101 N"
b0 9"
b100010010000000000000000000000000000000000000000000000000000000000000000000000000000000000000000000000000101000001 B"
b10000000001010000000000000100010011 E"
b1100 8
b1100 P"
b1100 S"
b100000000001100000000000001100010011 C"
b1000 "
b1000 '
b1000 7
b1000 G"
b1000 Q"
b1000 Z"
1$
#90000
0$
#95000
b10100 `
b10100 q
b10100 w
b10100 p
b10100 v
b10100 z
b11000 :"
b11000 ]"
b10100 %"
b10100 |
b11000 D
b11000 >"
b11000 J"
b11000 F
b11000 `"
b11000 h"
b11000 o"
b110 I
b110 ^"
b110 f"
b110 q"
b1000 O
b1000 ?"
b1000 R"
b10100 i
b10100 r
b10100 {
b10100 !"
b10100 &"
b10100 -"
b10 4"
b10000 :
b10000 U"
b10000 Y"
b110000001011100111 9
b110000001011100111 F"
b1100000000000001100010011 #
b1100000000000001100010011 &
b1100000000000001100010011 C
b1100000000000001100010011 H"
b1100000000000001100010011 e"
b1000100010010000000000000000000000000000000000000000000000000000000000000000000000000000000000000000000000001100000110 @"
b100000 ="
b1000 <
b1000 ;"
b1000000000000000000000000000000101000000000000000000000000000000000000010 6"
b10 b
b10100 ]
b10100 ,"
b10100 V"
b11000 _
b11000 T"
b11000 X"
b100 X
b100 W"
b1 2
b1010 0
b1010 1"
b10000000000000000000000000000000000000000000000000000000000000101000001 K"
11
b0 ,
b0 ["
0+
b10000 8
b10000 P"
b10000 S"
b110000000000000000110000001011100111 C"
b1100 "
b1100 '
b1100 7
b1100 G"
b1100 Q"
b1100 Z"
b100000000001100000000000001100010011 E"
b100100010010000000000000000000000000000000000000000000000000000000000000000000000000000000000000000000000001010000010 B"
b1000000000000000000000000000000010100000000000000000000000000000000000001 9"
b0 N"
1$
#100000
0$
#105000
b11000 `
b11000 q
b11000 w
b11000 p
b11000 v
b11000 z
1;
b10 T
b10 *"
b11000 %"
b11000 |
1J
b11000 V
b11000 <"
b11000 a"
b0 ]"
1Q
1=
b0 U
b0 )"
b0 u"
1H
1S
b1010 !
b1010 (
b1010 -
b1010 0"
b1010 \"
b101 4"
b11000 i
b11000 r
b11000 {
b11000 !"
b11000 &"
b11000 -"
b0 D
b0 >"
b0 J"
b1100111 I"
b0 F
b0 `"
b0 h"
b0 o"
b110 G
b110 b"
b110 g"
b110 p"
b101 I
b101 ^"
b101 f"
b101 q"
0m"
b1100111 r"
b11000 O
b11000 ?"
b11000 R"
b1 ,
b1 ["
b1010 *
b1010 ."
1+
b10 2
b10000000000000000000000000000000000000000000000000000000000001010000010 K"
b10100 0
b10100 1"
b1000000000000000000000000000000110000000000000000000000000000000000000110 6"
b110 b
b11000 ]
b11000 ,"
b11000 V"
b100000 _
b100000 T"
b100000 X"
b1000 X
b1000 W"
b110000001011100111 #
b110000001011100111 &
b110000001011100111 C
b110000001011100111 H"
b110000001011100111 e"
b1100100010010000000000000000000000000000000011000000000000000000000000000000000000000000000000000000000000000000000101 @"
b1100 ="
b1100 <
b1100 ;"
b11000 :
b11000 U"
b11000 Y"
b110001100000000000000010011 9
b110001100000000000000010011 F"
b10000000000000000000000000000000000000000000000000000000000000101000001 N"
b1000000000000000000000000000000101000000000000000000000000000000000000010 9"
b1000100010010000000000000000000000000000000000000000000000000000000000000000000000000000000000000000000000001100000110 B"
b110000000000000000110000001011100111 E"
b10100 8
b10100 P"
b10100 S"
b1000000000110001100000000000000010011 C"
b10000 "
b10000 '
b10000 7
b10000 G"
b10000 Q"
b10000 Z"
1$
#110000
0$
#115000
b0 :"
b11000 `
b11000 q
b11000 w
b0 V
b0 <"
b0 a"
0H
0Q
0S
0=
0;
b0 %"
b11000 p
b11000 v
b11000 z
b0 I"
b0 G
b0 b"
b0 g"
b0 p"
b0 I
b0 ^"
b0 f"
b0 q"
b0 r"
b0 O
b0 ?"
b0 R"
0J
b0 i
b0 r
b0 {
b0 !"
b0 &"
b0 -"
b11000 |
b110 4"
b10100 !
b10100 (
b10100 -
b10100 0"
b10100 \"
b11100 :
b11100 U"
b11100 Y"
b1000001000000110110011 9
b1000001000000110110011 F"
b0 #
b0 &
b0 C
b0 H"
b0 e"
b10000000000000000000000000000000000000000000000000000000000000000000000000000000000000000000000000000000000 @"
b0 ="
b0 <
b0 ;"
b1000000000000000000000000000000110000000000000000000000000000000000000101 6"
b101 b
b0 ]
b0 ,"
b0 V"
b11000 k
b11000 l
b11000 x
b11000 }
b11000 #"
b1100 _
b1100 T"
b1100 X"
b1100 X
b1100 W"
b110 2
b10000000000000000000000000000000000000000000000000000000000001100000110 K"
b11000 0
b11000 1"
b10 ,
b10 ["
b10100 *
b10100 ."
b11100 8
b11100 P"
b11100 S"
b1100000000000001000001000000110110011 C"
b11000 "
b11000 '
b11000 7
b11000 G"
b11000 Q"
b11000 Z"
b0 E"
b1100100010010000000000000000000000000000000011000000000000000000000000000000000000000000000000000000000000000000000101 B"
b1000000000000000000000000000000110000000000000000000000000000000000000110 9"
b10000000000000000000000000000000000000000000000000000000000001010000010 N"
1$
#120000
0$
#125000
1^
b0 `
b0 q
b0 w
b1010 :"
b10 T
b10 *"
b0 p
b0 v
b0 z
b10100 R
b10100 _"
b1010 V
b1010 <"
b1010 a"
1H
b10 U
b10 )"
b10 u"
b11000 !
b11000 (
b11000 -
b11000 0"
b11000 \"
b0 |
b110011 I"
b10 F
b10 `"
b10 h"
b10 o"
b1 G
b1 b"
b1 g"
b1 p"
b11 I
b11 ^"
b11 f"
b11 q"
1l"
b110011 r"
b11000 O
b11000 ?"
b11000 R"
b110 ,
b110 ["
b11000 *
b11000 ."
b10000000000000000000000000000000000000000000000000000000000001100000101 K"
b101 2
b0 b
b0 k
b0 l
b0 x
b0 }
b0 #"
0h
b0 6"
0a
b0 _
b0 T"
b0 X"
b0 X
b0 W"
b1000001000000110110011 #
b1000001000000110110011 &
b1000001000000110110011 C
b1000001000000110110011 H"
b1000001000000110110011 e"
b11000100000010000000000000000000000000000000001010000000000000000000000000000101000000000000000000000000000000000000011 @"
b11000 ="
b11000 <
b11000 ;"
b100000 :
b100000 U"
b100000 Y"
b1100011 9
b1100011 F"
b10000000000000000000000000000000000000000000000000000000000001100000110 N"
b1000000000000000000000000000000110000000000000000000000000000000000000101 9"
b10000000000000000000000000000000000000000000000000000000000000000000000000000000000000000000000000000000000 B"
b1100000000000001000001000000110110011 E"
b100000 8
b100000 P"
b100000 S"
b1110000000000000000000000000001100011 C"
b11100 "
b11100 '
b11100 7
b11100 G"
b11100 Q"
b11100 Z"
1$
#130000
0$
#135000
b0 :"
b110 T
b110 *"
0^
b11110 `
b11110 q
b11110 w
b0 R
b0 _"
b0 V
b0 <"
b0 a"
1B
1Q
b1 U
b1 )"
b1 u"
0H
b10100 %"
b11110 p
b11110 v
b11110 z
b1100011 I"
b0 F
b0 `"
b0 h"
b0 o"
b0 G
b0 b"
b0 g"
b0 p"
b0 I
b0 ^"
b0 f"
b0 q"
0l"
1k"
b1100011 r"
b11100 O
b11100 ?"
b11100 R"
b10100 i
b10100 r
b10100 {
b10100 !"
b10100 &"
b10100 -"
b11110 |
b0 4"
b100100 :
b100100 U"
b100100 Y"
bx 9
bx F"
b1100011 #
b1100011 &
b1100011 C
b1100011 H"
b1100011 e"
b11100000000110100000000000000000000000000000000000000000000000000000000000000000000000000000000000000000000000000000000 @"
b11100 ="
b11100 <
b11100 ;"
b11 b
b10100 g
b10100 +"
b1010 k
b1010 l
b1010 x
b1010 }
b1010 #"
b1000000000000000000000000000000111100000000000000000000000000001010000011 6"
1a
b11000 _
b11000 T"
b11000 X"
b11000 X
b11000 W"
b0 2
b0 0
b0 1"
b0 K"
01
b101 ,
b101 ["
b100100 8
b100100 P"
b100100 S"
b100000xxxxxxxxxxxxxxxxxxxxxxxxxxxxxxxx C"
b100000 "
b100000 '
b100000 7
b100000 G"
b100000 Q"
b100000 Z"
b1110000000000000000000000000001100011 E"
b11000100000010000000000000000000000000000000001010000000000000000000000000000101000000000000000000000000000000000000011 B"
b0 9"
b10000000000000000000000000000000000000000000000000000000000001100000101 N"
1$
#140000
0$
