CPU.vcd
$date
	Wed May 27 08:28:26 2026
$end
$version
	Icarus Verilog
$end
$timescale
	1ps
$end
$scope module Top_CPU_tb $end
$var wire 32 ! wb_data [31:0] $end
$var wire 32 " current_pc [31:0] $end
$var wire 32 # current_inst [31:0] $end
$var reg 1 $ clk $end
$var reg 1 % reset $end
$scope module uut $end
$var wire 1 $ clk $end
$var wire 32 & current_inst [31:0] $end
$var wire 32 ' current_pc [31:0] $end
$var wire 1 % reset $end
$var wire 32 ( wb_data [31:0] $end
$var wire 1 ) sign $end
$var wire 32 * read_data [31:0] $end
$var wire 32 + pc [31:0] $end
$var wire 32 , next_pc [31:0] $end
$var wire 1 - is_BEQ $end
$var wire 32 . instruction [31:0] $end
$var wire 32 / imm [31:0] $end
$var wire 1 0 funct7_bit30 $end
$var wire 32 1 final_next_pc [31:0] $end
$var wire 1 2 alusrc $end
$var wire 1 3 ZF $end
$var wire 32 4 Target [31:0] $end
$var wire 5 5 Rs2 [4:0] $end
$var wire 5 6 Rs1 [4:0] $end
$var wire 32 7 Result [31:0] $end
$var wire 1 8 RegWrite $end
$var wire 5 9 Rd [4:0] $end
$var wire 1 : PCsrc $end
$var wire 32 ; OUT [31:0] $end
$var wire 1 < MemtoReg $end
$var wire 1 = MemWrite $end
$var wire 1 > MemRead $end
$var wire 3 ? Funct3 [2:0] $end
$var wire 1 @ Branch $end
$var wire 32 A B [31:0] $end
$var wire 32 B ALU_in_b [31:0] $end
$var wire 4 C ALU_Control [3:0] $end
$var wire 2 D ALUOp [1:0] $end
$var wire 32 E A [31:0] $end
$scope module u_ALU $end
$var wire 1 ) sign $end
$var wire 32 F shift_result [31:0] $end
$var wire 32 G logic_result [31:0] $end
$var wire 32 H calculate_result [31:0] $end
$var wire 1 3 ZF $end
$var wire 32 I Result [31:0] $end
$var wire 32 J B [31:0] $end
$var wire 4 K ALU_Control [3:0] $end
$var wire 32 L A [31:0] $end
$scope module MUX $end
$var wire 32 M shift_result [31:0] $end
$var wire 32 N logic_result [31:0] $end
$var wire 32 O calculate_result [31:0] $end
$var wire 4 P ALU_Control [3:0] $end
$var reg 32 Q ALU_result [31:0] $end
$upscope $end
$scope module u_Adder $end
$var wire 1 ) sign $end
$var wire 32 R calculate_result [31:0] $end
$var wire 1 3 ZF $end
$var wire 32 S B [31:0] $end
$var wire 4 T ALU_Control [3:0] $end
$var wire 32 U A [31:0] $end
$var reg 33 V tmp_result [32:0] $end
$upscope $end
$scope module u_Logic $end
$var wire 32 W B [31:0] $end
$var wire 4 X ALU_Control [3:0] $end
$var wire 32 Y A [31:0] $end
$var reg 32 Z logic_result [31:0] $end
$upscope $end
$scope module u_Shift $end
$var wire 5 [ shift_amt [4:0] $end
$var wire 32 \ B [31:0] $end
$var wire 4 ] ALU_Control [3:0] $end
$var wire 32 ^ A [31:0] $end
$var reg 32 _ shift_result [31:0] $end
$upscope $end
$upscope $end
$scope module u_ALU_Control $end
$var wire 1 0 funct7_bit30 $end
$var wire 3 ` Funct3 [2:0] $end
$var wire 2 a ALUOp [1:0] $end
$var reg 4 b ALU_Control [3:0] $end
$upscope $end
$scope module u_ALUsrc $end
$var wire 32 c Imm [31:0] $end
$var wire 32 d B [31:0] $end
$var wire 1 2 ALUsrc $end
$var wire 32 e ALU_in_b [31:0] $end
$upscope $end
$scope module u_CPU_MUX $end
$var wire 32 f ALU_result [31:0] $end
$var wire 32 g mem_read_data [31:0] $end
$var wire 32 h OUT [31:0] $end
$var wire 1 < MemtoReg $end
$upscope $end
$scope module u_Data_Memory $end
$var wire 32 i addr [31:0] $end
$var wire 1 $ clk $end
$var wire 1 % reset $end
$var wire 32 j write_data [31:0] $end
$var wire 32 k read_data [31:0] $end
$var wire 5 l index [4:0] $end
$var wire 1 = MemWrite $end
$var wire 1 > MemRead $end
$var integer 32 m i [31:0] $end
$upscope $end
$scope module u_IMEM $end
$var wire 32 n instruction [31:0] $end
$var wire 32 o pc [31:0] $end
$upscope $end
$scope module u_ImmGen $end
$var wire 32 p inst [31:0] $end
$var wire 7 q Opcode [6:0] $end
$var reg 32 r imm_out [31:0] $end
$upscope $end
$scope module u_PCSrc $end
$var wire 1 : PCSrc $end
$var wire 1 3 ZF $end
$var wire 1 - is_BEQ $end
$upscope $end
$scope module u_PC_Adder $end
$var wire 32 s next_pc [31:0] $end
$var wire 32 t current_pc [31:0] $end
$upscope $end
$scope module u_PC_MUX $end
$var wire 1 : PCSrc $end
$var wire 32 u next_pc [31:0] $end
$var wire 32 v final_next_pc [31:0] $end
$var wire 32 w Target [31:0] $end
$upscope $end
$scope module u_PC_Target $end
$var wire 32 x imm [31:0] $end
$var wire 32 y pc [31:0] $end
$var wire 32 z Target [31:0] $end
$upscope $end
$scope module u_PC_reg $end
$var wire 1 $ clk $end
$var wire 32 { next_pc [31:0] $end
$var wire 1 % reset $end
$var reg 32 | pc [31:0] $end
$upscope $end
$scope module u_Regfile $end
$var wire 1 $ clk $end
$var wire 1 % reset $end
$var wire 32 } we_data [31:0] $end
$var wire 5 ~ we_addr [4:0] $end
$var wire 1 8 we $end
$var wire 32 !" Rt_data [31:0] $end
$var wire 5 "" Rt_addr [4:0] $end
$var wire 32 #" Rs2_data [31:0] $end
$var wire 5 $" Rs2_addr [4:0] $end
$var wire 32 %" Rs1_data [31:0] $end
$var wire 5 &" Rs1_addr [4:0] $end
$var integer 32 '" i [31:0] $end
$upscope $end
$scope module u_decoder $end
$var wire 3 (" funct3 [2:0] $end
$var wire 32 )" instruction [31:0] $end
$var wire 5 *" rd [4:0] $end
$var wire 5 +" rs1 [4:0] $end
$var wire 5 ," rs2 [4:0] $end
$var wire 1 -" is_store $end
$var wire 1 ." is_load $end
$var wire 1 /" is_branch $end
$var wire 1 0" is_R_type $end
$var wire 1 1" is_Imm_alu $end
$var wire 1 2" is_FPU $end
$var wire 1 0 funct7_bit30 $end
$var wire 5 3" Rs2 [4:0] $end
$var wire 5 4" Rs1 [4:0] $end
$var wire 5 5" Rd [4:0] $end
$var wire 7 6" Opcode [6:0] $end
$var wire 7 7" Funct7 [6:0] $end
$var wire 3 8" Funct3 [2:0] $end
$var reg 2 9" ALUOp [1:0] $end
$var reg 1 2 ALUsrc $end
$var reg 1 @ Branch $end
$var reg 1 :" FPU_en $end
$var reg 1 > MemRead $end
$var reg 1 = MemWrite $end
$var reg 1 < MemtoReg $end
$var reg 1 8 RegWrite $end
$var reg 1 - is_BEQ $end
$var reg 1 ;" is_BGE $end
$var reg 1 <" is_BLT $end
$var reg 1 =" is_BNE $end
$var reg 1 >" is_JAL $end
$var reg 1 ?" is_JALR $end
$var reg 1 @" is_LW $end
$var reg 1 A" is_SW $end
$upscope $end
$upscope $end
$upscope $end
$enddefinitions $end
#0
$dumpvars
0A"
0@"
0?"
0>"
0="
0<"
0;"
0:"
b10 9"
b0 8"
b0 7"
b10011 6"
b1 5"
b0 4"
b1010 3"
02"
11"
00"
0/"
0."
0-"
b1010 ,"
b0 +"
b1 *"
b101000000000000010010011 )"
b0 ("
b100000 '"
b0 &"
b0 %"
b1010 $"
b0 #"
b1 ""
b0 !"
b1 ~
b1010 }
b0 |
b100 {
b1010 z
b0 y
b1010 x
b1010 w
b100 v
b100 u
b0 t
b100 s
b1010 r
b10011 q
b101000000000000010010011 p
b0 o
b101000000000000010010011 n
b100000 m
b10 l
b0 k
b0 j
b1010 i
b1010 h
b0 g
b1010 f
b1010 e
b0 d
b1010 c
b10 b
b10 a
b0 `
b0 _
b0 ^
b10 ]
b1010 \
b1010 [
b0 Z
b0 Y
b10 X
b1010 W
b1010 V
b0 U
b10 T
b1010 S
b1010 R
b1010 Q
b10 P
b1010 O
b0 N
b0 M
b0 L
b10 K
b1010 J
b1010 I
b1010 H
b0 G
b0 F
b0 E
b10 D
b10 C
b1010 B
b0 A
0@
b0 ?
0>
0=
0<
b1010 ;
0:
b1 9
18
b1010 7
b0 6
b1010 5
b1010 4
03
12
b100 1
00
b1010 /
b101000000000000010010011 .
0-
b100 ,
b0 +
b0 *
0)
b1010 (
b0 '
b101000000000000010010011 &
1%
0$
b101000000000000010010011 #
b0 "
b1010 !
$end
#28000
0%
#30000
b10100 !
b10100 (
b10100 ;
b10100 h
b10100 }
b101 l
b10100 7
b10100 I
b10100 Q
b10100 f
b10100 i
b10100 H
b10100 O
b10100 R
b10100 [
b10100 V
b10100 B
b10100 J
b10100 S
b10100 W
b10100 \
b10100 e
b10100 /
b10100 c
b10100 r
b10100 x
b10100 5
b10100 $"
b10100 ,"
b10100 3"
b10 9
b10 ~
b10 ""
b10 *"
b10 5"
b0 !"
b1000 1
b1000 v
b1000 {
b1010000000000000100010011 #
b1010000000000000100010011 &
b1010000000000000100010011 .
b1010000000000000100010011 n
b1010000000000000100010011 p
b1010000000000000100010011 )"
b11000 4
b11000 w
b11000 z
b1000 ,
b1000 s
b1000 u
b100 "
b100 '
b100 +
b100 o
b100 t
b100 y
b100 |
1$
#60000
0$
#90000
b11110 !
b11110 (
b11110 ;
b11110 h
b11110 }
b111 l
b11110 7
b11110 I
b11110 Q
b11110 f
b11110 i
b11110 H
b11110 O
b11110 R
b11110 V
b10 C
b10 K
b10 P
b10 T
b10 X
b10 ]
b10 b
b10100 A
b10100 d
b10100 j
b10100 #"
b1010 E
b1010 L
b1010 U
b1010 Y
b1010 ^
b1010 %"
b10 D
b10 a
b10 9"
18
02
b0 /
b0 c
b0 r
b0 x
b110011 q
b10 5
b10 $"
b10 ,"
b10 3"
b1 6
b1 &"
b1 +"
b1 4"
b11 9
b11 ~
b11 ""
b11 *"
b11 5"
10"
01"
b110011 6"
b1100 1
b1100 v
b1100 {
b1000001000000110110011 #
b1000001000000110110011 &
b1000001000000110110011 .
b1000001000000110110011 n
b1000001000000110110011 p
b1000001000000110110011 )"
b0 !"
b1000 4
b1000 w
b1000 z
b1100 ,
b1100 s
b1100 u
b1000 "
b1000 '
b1000 +
b1000 o
b1000 t
b1000 y
b1000 |
1$
#120000
0$
#150000
b100 !
b100 (
b100 ;
b100 h
b100 }
b1 l
b100 7
b100 I
b100 Q
b100 f
b100 i
b100 H
b100 O
b100 R
b100 [
b100 V
b100 B
b100 J
b100 S
b100 W
b100 \
b100 e
b11110 A
b11110 d
b11110 j
b11110 #"
b0 E
b0 L
b0 U
b0 Y
b0 ^
b0 %"
b10 C
b10 K
b10 P
b10 T
b10 X
b10 ]
b10 b
12
1=
1A"
b0 D
b0 a
b0 9"
08
b100 /
b100 c
b100 r
b100 x
b100011 q
b11 5
b11 $"
b11 ,"
b11 3"
b0 6
b0 &"
b0 +"
b0 4"
b10 ?
b10 `
b10 ("
b10 8"
b100 9
b100 ~
b100 ""
b100 *"
b100 5"
00"
1-"
b100011 6"
b0 !"
b10000 1
b10000 v
b10000 {
b1100000010001000100011 #
b1100000010001000100011 &
b1100000010001000100011 .
b1100000010001000100011 n
b1100000010001000100011 p
b1100000010001000100011 )"
b10000 4
b10000 w
b10000 z
b10000 ,
b10000 s
b10000 u
b1100 "
b1100 '
b1100 +
b1100 o
b1100 t
b1100 y
b1100 |
1$
#180000
0$
#210000
b11110 !
b11110 (
b11110 ;
b11110 h
b11110 }
b11110 *
b11110 g
b11110 k
b0 A
b0 d
b0 j
b0 #"
18
1<
1>
1@"
0=
12
0A"
b100 /
b100 c
b100 r
b100 x
b11 q
b100 5
b100 $"
b100 ,"
b100 3"
1."
0-"
b11 6"
b10100 1
b10100 v
b10100 {
b10000000010001000000011 #
b10000000010001000000011 &
b10000000010001000000011 .
b10000000010001000000011 n
b10000000010001000000011 p
b10000000010001000000011 )"
b10100 4
b10100 w
b10100 z
b10100 ,
b10100 s
b10100 u
b10000 "
b10000 '
b10000 +
b10000 o
b10000 t
b10000 y
b10000 |
1$
#240000
0$
#270000
1:
b0 l
13
b0 7
b0 I
b0 Q
b0 f
b0 i
b0 H
b0 O
b0 R
b11110 [
b0 V
b0 *
b0 g
b0 k
b0 !
b0 (
b0 ;
b0 h
b0 }
b11110 B
b11110 J
b11110 S
b11110 W
b11110 \
b11110 e
b11110 E
b11110 L
b11110 U
b11110 Y
b11110 ^
b11110 %"
b110 C
b110 K
b110 P
b110 T
b110 X
b110 ]
b110 b
1-
1@
b1 D
b1 a
b1 9"
08
0>
02
0<
0@"
b100 /
b100 c
b100 r
b100 x
b1100011 q
b11 6
b11 &"
b11 +"
b11 4"
b0 ?
b0 `
b0 ("
b0 8"
b1000 9
b1000 ~
b1000 ""
b1000 *"
b1000 5"
1/"
0."
b1100011 6"
b11110 A
b11110 d
b11110 j
b11110 #"
b0 !"
b11000 1
b11000 v
b11000 {
b10000011000010001100011 #
b10000011000010001100011 &
b10000011000010001100011 .
b10000011000010001100011 n
b10000011000010001100011 p
b10000011000010001100011 )"
b11000 4
b11000 w
b11000 z
b11000 ,
b11000 s
b11000 u
b10100 "
b10100 '
b10100 +
b10100 o
b10100 t
b10100 y
b10100 |
1$
#300000
0$
#330000
b1 !
b1 (
b1 ;
b1 h
b1 }
b0 l
03
0)
b11111 [
b1 7
b1 I
b1 Q
b1 f
b1 i
b1 H
b1 O
b1 R
b11111111111111111111111111111111 B
b11111111111111111111111111111111 J
b11111111111111111111111111111111 S
b11111111111111111111111111111111 W
b11111111111111111111111111111111 \
b11111111111111111111111111111111 e
0:
b100000000000000000000000000000001 V
b0 A
b0 d
b0 j
b0 #"
b0 E
b0 L
b0 U
b0 Y
b0 ^
b0 %"
12
18
b10 D
b10 a
b10 9"
0@
0-
b110 C
b110 K
b110 P
b110 T
b110 X
b110 ]
b110 b
b11111111111111111111111111111111 /
b11111111111111111111111111111111 c
b11111111111111111111111111111111 r
b11111111111111111111111111111111 x
b10011 q
b1111111 7"
b11111 5
b11111 $"
b11111 ,"
b11111 3"
b0 6
b0 &"
b0 +"
b0 4"
b101 9
b101 ~
b101 ""
b101 *"
b101 5"
11"
0/"
b10011 6"
10
b11100 1
b11100 v
b11100 {
b11111111111100000000001010010011 #
b11111111111100000000001010010011 &
b11111111111100000000001010010011 .
b11111111111100000000001010010011 n
b11111111111100000000001010010011 p
b11111111111100000000001010010011 )"
b10111 4
b10111 w
b10111 z
b11100 ,
b11100 s
b11100 u
b11000 "
b11000 '
b11000 +
b11000 o
b11000 t
b11000 y
b11000 |
1$
#360000
0$
#390000
b1100100 !
b1100100 (
b1100100 ;
b1100100 h
b1100100 }
b11001 l
b1100100 7
b1100100 I
b1100100 Q
b1100100 f
b1100100 i
b1100100 H
b1100100 O
b1100100 R
b100 [
b1100100 V
b1100100 B
b1100100 J
b1100100 S
b1100100 W
b1100100 \
b1100100 e
b11110 A
b11110 d
b11110 j
b11110 #"
b10 C
b10 K
b10 P
b10 T
b10 X
b10 ]
b10 b
b1100100 /
b1100100 c
b1100100 r
b1100100 x
b11 7"
b100 5
b100 $"
b100 ,"
b100 3"
00
b1 !"
b100000 1
b100000 v
b100000 {
b110010000000000001010010011 #
b110010000000000001010010011 &
b110010000000000001010010011 .
b110010000000000001010010011 n
b110010000000000001010010011 p
b110010000000000001010010011 )"
b10000000 4
b10000000 w
b10000000 z
b100000 ,
b100000 s
b100000 u
b11100 "
b11100 '
b11100 +
b11100 o
b11100 t
b11100 y
b11100 |
1$
#420000
0$
#450000
1:
b0 !
b0 (
b0 ;
b0 h
b0 }
b0 l
13
b0 7
b0 I
b0 Q
b0 f
b0 i
b0 H
b0 O
b0 R
b0 [
b0 V
b110 C
b110 K
b110 P
b110 T
b110 X
b110 ]
b110 b
b0 B
b0 J
b0 S
b0 W
b0 \
b0 e
b0 A
b0 d
b0 j
b0 #"
1-
1@
b1 D
b1 a
b1 9"
08
02
b0 /
b0 c
b0 r
b0 x
b1100011 q
b0 7"
b0 5
b0 $"
b0 ,"
b0 3"
b0 9
b0 ~
b0 ""
b0 *"
b0 5"
01"
1/"
b1100011 6"
b100000 1
b100000 v
b100000 {
b1100011 #
b1100011 &
b1100011 .
b1100011 n
b1100011 p
b1100011 )"
b0 !"
b100000 4
b100000 w
b100000 z
b100100 ,
b100100 s
b100100 u
b100000 "
b100000 '
b100000 +
b100000 o
b100000 t
b100000 y
b100000 |
1$
