FPU_ADD.vcd
$date
	Sun May 03 23:02:55 2026
$end
$version
	Icarus Verilog
$end
$timescale
	1ps
$end
$scope module FPU_ADD_tb $end
$var wire 32 ! result_out [31:0] $end
$var wire 1 " error $end
$var wire 1 # UF $end
$var wire 1 $ OF $end
$var reg 32 % IN_a [31:0] $end
$var reg 32 & IN_b [31:0] $end
$var reg 1 ' clk $end
$var reg 1 ( mode $end
$var reg 1 ) reset $end
$scope module fpu_tb $end
$var wire 32 * IN_a [31:0] $end
$var wire 32 + IN_b [31:0] $end
$var wire 1 ' clk $end
$var wire 1 ( mode $end
$var wire 1 ) reset $end
$var wire 32 , s6_result_out [31:0] $end
$var wire 1 - s6_final_SIGN $end
$var wire 23 . s6_final_FRAC [22:0] $end
$var wire 9 / s6_final_EXPO [8:0] $end
$var wire 1 0 s6_error $end
$var wire 1 1 s6_UF $end
$var wire 1 2 s6_Rounding_count $end
$var wire 1 3 s6_OF $end
$var wire 48 4 s6_FRAC_shifted [47:0] $end
$var wire 9 5 s6_EXPO [8:0] $end
$var wire 1 6 s5_final_SIGN $end
$var wire 49 7 s5_FRAC_shifted [48:0] $end
$var wire 1 8 s5_FRAC_nor_doing $end
$var wire 1 9 s5_FRAC_nor_direction $end
$var wire 8 : s5_FRAC_nor_count [7:0] $end
$var wire 49 ; s5_FRAC_nor_FRAC [48:0] $end
$var wire 8 < s5_EXPO_big [7:0] $end
$var wire 9 = s5_EXPO [8:0] $end
$var wire 1 > s4_final_SIGN $end
$var wire 1 ? s4_FRAC_nor_doing $end
$var wire 1 @ s4_FRAC_nor_direction $end
$var wire 8 A s4_FRAC_nor_count [7:0] $end
$var wire 49 B s4_FRAC_nor_FRAC [48:0] $end
$var wire 48 C s4_FRAC_Sum [47:0] $end
$var wire 1 D s4_FRAC_Cout $end
$var wire 8 E s4_EXPO_big [7:0] $end
$var wire 1 F s3_final_SIGN $end
$var wire 1 G s3_eff_sub $end
$var wire 48 H s3_FRAC_shifted_B [47:0] $end
$var wire 48 I s3_FRAC_shifted_A [47:0] $end
$var wire 48 J s3_FRAC_Sum2 [47:0] $end
$var wire 48 K s3_FRAC_Sum1 [47:0] $end
$var wire 48 L s3_FRAC_SUM [47:0] $end
$var wire 1 M s3_FRAC_Cout1 $end
$var wire 48 N s3_FRAC_B [47:0] $end
$var wire 48 O s3_FRAC_A [47:0] $end
$var wire 8 P s3_EXPO_big [7:0] $end
$var wire 1 Q s2_mode $end
$var wire 1 R s2_final_SIGN $end
$var wire 1 S s2_eff_sub $end
$var wire 1 T s2_bigger $end
$var wire 1 U s2_SIGN_B $end
$var wire 1 V s2_SIGN_A $end
$var wire 48 W s2_FRAC_shifted_B [47:0] $end
$var wire 48 X s2_FRAC_shifted_A [47:0] $end
$var wire 48 Y s2_FRAC_cond_B [47:0] $end
$var wire 48 Z s2_FRAC_cond_A [47:0] $end
$var wire 48 [ s2_FRAC_B [47:0] $end
$var wire 48 \ s2_FRAC_A [47:0] $end
$var wire 1 ] s2_EXPO_doing_B $end
$var wire 1 ^ s2_EXPO_doing_A $end
$var wire 1 _ s2_EXPO_direction $end
$var wire 8 ` s2_EXPO_count [7:0] $end
$var wire 8 a s2_EXPO_big [7:0] $end
$var wire 1 b s1_mode $end
$var wire 1 c s1_bigger $end
$var wire 1 d s1_SIGN_B $end
$var wire 1 e s1_SIGN_A $end
$var wire 32 f s1_IN_B [31:0] $end
$var wire 32 g s1_IN_A [31:0] $end
$var wire 23 h s1_FRAC_B [22:0] $end
$var wire 23 i s1_FRAC_A [22:0] $end
$var wire 1 j s1_EXPO_doing_B $end
$var wire 1 k s1_EXPO_doing_A $end
$var wire 1 l s1_EXPO_direction $end
$var wire 8 m s1_EXPO_count [7:0] $end
$var wire 8 n s1_EXPO_big [7:0] $end
$var wire 8 o s1_EXPO_B [7:0] $end
$var wire 8 p s1_EXPO_A [7:0] $end
$var wire 32 q result_out [31:0] $end
$var wire 1 " error $end
$var wire 1 # UF $end
$var wire 1 $ OF $end
$scope module EXPO_sub_s1 $end
$var wire 8 r EXPO_big [7:0] $end
$var wire 8 s EXPO_b [7:0] $end
$var wire 8 t EXPO_a [7:0] $end
$var reg 8 u count [7:0] $end
$var reg 1 l direction $end
$var reg 1 k doing_A $end
$var reg 1 j doing_B $end
$upscope $end
$scope module FRAC_shifter1_A_s2 $end
$var wire 48 v shift [47:0] $end
$var wire 1 ^ doing $end
$var wire 1 _ direction $end
$var wire 8 w count [7:0] $end
$var reg 48 x SHIFT [47:0] $end
$upscope $end
$scope module FRAC_shifter1_B_s2 $end
$var wire 48 y shift [47:0] $end
$var wire 1 ] doing $end
$var wire 1 _ direction $end
$var wire 8 z count [7:0] $end
$var reg 48 { SHIFT [47:0] $end
$upscope $end
$scope module FRAC_shifter2_s5 $end
$var wire 49 | shift [48:0] $end
$var wire 1 8 doing $end
$var wire 1 9 direction $end
$var wire 8 } count [7:0] $end
$var reg 49 ~ SHIFT [48:0] $end
$upscope $end
$scope module cla_AB_s3 $end
$var wire 48 !" G [47:0] $end
$var wire 48 "" P [47:0] $end
$var wire 48 #" Sum [47:0] $end
$var wire 1 M Cout $end
$var wire 1 G Cin $end
$var wire 49 $" C [48:0] $end
$var wire 48 %" B [47:0] $end
$var wire 48 &" A [47:0] $end
$scope begin cla_blocks[0] $end
$upscope $end
$scope begin cla_blocks[1] $end
$upscope $end
$scope begin cla_blocks[2] $end
$upscope $end
$scope begin cla_blocks[3] $end
$upscope $end
$scope begin cla_blocks[4] $end
$upscope $end
$scope begin cla_blocks[5] $end
$upscope $end
$scope begin cla_blocks[6] $end
$upscope $end
$scope begin cla_blocks[7] $end
$upscope $end
$scope begin cla_blocks[8] $end
$upscope $end
$scope begin cla_blocks[9] $end
$upscope $end
$scope begin cla_blocks[10] $end
$upscope $end
$scope begin cla_blocks[11] $end
$upscope $end
$upscope $end
$scope module cla_BA_s3 $end
$var wire 48 '" G [47:0] $end
$var wire 48 (" P [47:0] $end
$var wire 48 )" Sum [47:0] $end
$var wire 1 *" Cout $end
$var wire 1 G Cin $end
$var wire 49 +" C [48:0] $end
$var wire 48 ," B [47:0] $end
$var wire 48 -" A [47:0] $end
$scope begin cla_blocks[0] $end
$upscope $end
$scope begin cla_blocks[1] $end
$upscope $end
$scope begin cla_blocks[2] $end
$upscope $end
$scope begin cla_blocks[3] $end
$upscope $end
$scope begin cla_blocks[4] $end
$upscope $end
$scope begin cla_blocks[5] $end
$upscope $end
$scope begin cla_blocks[6] $end
$upscope $end
$scope begin cla_blocks[7] $end
$upscope $end
$scope begin cla_blocks[8] $end
$upscope $end
$scope begin cla_blocks[9] $end
$upscope $end
$scope begin cla_blocks[10] $end
$upscope $end
$scope begin cla_blocks[11] $end
$upscope $end
$upscope $end
$scope module co_inAB_s2 $end
$var wire 48 ." FRAC_B [47:0] $end
$var wire 1 S eff_sub $end
$var reg 1 /" Cin $end
$var reg 48 0" FRAC_cla_B [47:0] $end
$upscope $end
$scope module co_inBA_s2 $end
$var wire 48 1" FRAC_B [47:0] $end
$var wire 1 S eff_sub $end
$var reg 1 2" Cin $end
$var reg 48 3" FRAC_cla_B [47:0] $end
$upscope $end
$scope module expo_cal_s5 $end
$var wire 9 4" EXPO_in [8:0] $end
$var wire 6 5" count [5:0] $end
$var wire 1 8 doing $end
$var wire 1 9 direction $end
$var reg 9 6" EXPO_out [8:0] $end
$upscope $end
$scope module expo_mux_s6 $end
$var wire 1 2 count $end
$var wire 9 7" EXPO_plus [8:0] $end
$var wire 9 8" EXPO_out [8:0] $end
$var wire 9 9" EXPO_in [8:0] $end
$upscope $end
$scope module fin_frac_s6 $end
$var wire 1 2 count $end
$var wire 1 0 error $end
$var wire 1 :" round_up $end
$var wire 25 ;" rounded_top [24:0] $end
$var wire 1 <" overflow $end
$var wire 23 =" final_FRAC [22:0] $end
$var wire 1 >" S $end
$var wire 1 ?" R $end
$var wire 1 @" LSB $end
$var wire 1 A" G $end
$var wire 48 B" FRAC [47:0] $end
$upscope $end
$scope module fin_sign $end
$var wire 1 Q mode $end
$var wire 1 T bigger $end
$var wire 1 U SIGN_B $end
$var wire 1 V SIGN_A $end
$var reg 1 R result_SIGN $end
$upscope $end
$scope module magn_restore_s3 $end
$var wire 48 C" Sum_1 [47:0] $end
$var wire 48 D" Sum_2 [47:0] $end
$var wire 1 M cout_1 $end
$var wire 1 G eff_sub $end
$var wire 48 E" SUM [47:0] $end
$upscope $end
$scope module mode_dec_s2 $end
$var wire 1 S eff_sub $end
$var wire 1 U sign_B $end
$var wire 1 V sign_A $end
$var wire 1 Q mode $end
$upscope $end
$scope module normalization_s4 $end
$var wire 1 F" eff_sub $end
$var wire 49 G" nor_FRAC [48:0] $end
$var wire 6 H" lzd_count [5:0] $end
$var wire 1 I" all_zero $end
$var wire 48 J" Sum [47:0] $end
$var wire 1 D Cout $end
$var reg 8 K" count [7:0] $end
$var reg 1 @ direction $end
$var reg 1 ? doing $end
$scope module lzd $end
$var wire 48 L" Sum [47:0] $end
$var wire 64 M" SUM [63:0] $end
$var reg 1 I" all_zero $end
$var reg 6 N" count [5:0] $end
$var reg 64 O" temp [63:0] $end
$upscope $end
$upscope $end
$scope module reg0_A_s0_s1 $end
$var wire 32 P" D [31:0] $end
$var wire 1 ' clk $end
$var wire 1 ) reset $end
$var reg 32 Q" Q [31:0] $end
$upscope $end
$scope module reg0_B_s0_s1 $end
$var wire 32 R" D [31:0] $end
$var wire 1 ' clk $end
$var wire 1 ) reset $end
$var reg 32 S" Q [31:0] $end
$upscope $end
$scope module reg0_mode_s0_s1 $end
$var wire 1 ( D $end
$var wire 1 ' clk $end
$var wire 1 ) reset $end
$var reg 1 b Q $end
$upscope $end
$scope module reg1_EXPO_count_s1_s2 $end
$var wire 8 T" D [7:0] $end
$var wire 1 ' clk $end
$var wire 1 ) reset $end
$var reg 8 U" Q [7:0] $end
$upscope $end
$scope module reg1_EXPO_direction_s1_s2 $end
$var wire 1 l D $end
$var wire 1 ' clk $end
$var wire 1 ) reset $end
$var reg 1 _ Q $end
$upscope $end
$scope module reg1_EXPO_doing_A_s1_s2 $end
$var wire 1 k D $end
$var wire 1 ' clk $end
$var wire 1 ) reset $end
$var reg 1 ^ Q $end
$upscope $end
$scope module reg1_EXPO_doing_B_s1_s2 $end
$var wire 1 j D $end
$var wire 1 ' clk $end
$var wire 1 ) reset $end
$var reg 1 ] Q $end
$upscope $end
$scope module reg1_EXPO_s1_s2 $end
$var wire 8 V" D [7:0] $end
$var wire 1 ' clk $end
$var wire 1 ) reset $end
$var reg 8 W" Q [7:0] $end
$upscope $end
$scope module reg1_FRAC_A_s1_s2 $end
$var wire 48 X" D [47:0] $end
$var wire 1 ' clk $end
$var wire 1 ) reset $end
$var reg 48 Y" Q [47:0] $end
$upscope $end
$scope module reg1_FRAC_B_s1_s2 $end
$var wire 48 Z" D [47:0] $end
$var wire 1 ' clk $end
$var wire 1 ) reset $end
$var reg 48 [" Q [47:0] $end
$upscope $end
$scope module reg1_SIGN_A_s1_s2 $end
$var wire 1 ' clk $end
$var wire 1 ) reset $end
$var wire 1 e D $end
$var reg 1 V Q $end
$upscope $end
$scope module reg1_SIGN_B_s1_s2 $end
$var wire 1 ' clk $end
$var wire 1 ) reset $end
$var wire 1 d D $end
$var reg 1 U Q $end
$upscope $end
$scope module reg1_SIGN_bigger_s1_s2 $end
$var wire 1 ' clk $end
$var wire 1 ) reset $end
$var wire 1 c D $end
$var reg 1 T Q $end
$upscope $end
$scope module reg1_mode_s1_s2 $end
$var wire 1 b D $end
$var wire 1 ' clk $end
$var wire 1 ) reset $end
$var reg 1 Q Q $end
$upscope $end
$scope module reg2_EXPO_s2_s3 $end
$var wire 8 \" D [7:0] $end
$var wire 1 ' clk $end
$var wire 1 ) reset $end
$var reg 8 ]" Q [7:0] $end
$upscope $end
$scope module reg2_FRAC_A_s2_s3 $end
$var wire 48 ^" D [47:0] $end
$var wire 1 ' clk $end
$var wire 1 ) reset $end
$var reg 48 _" Q [47:0] $end
$upscope $end
$scope module reg2_FRAC_B_s2_s3 $end
$var wire 48 `" D [47:0] $end
$var wire 1 ' clk $end
$var wire 1 ) reset $end
$var reg 48 a" Q [47:0] $end
$upscope $end
$scope module reg2_FRAC_eff_sub_s2_s3 $end
$var wire 1 S D $end
$var wire 1 ' clk $end
$var wire 1 ) reset $end
$var reg 1 G Q $end
$upscope $end
$scope module reg2_FRAC_shifted_A_s2_s3 $end
$var wire 48 b" D [47:0] $end
$var wire 1 ' clk $end
$var wire 1 ) reset $end
$var reg 48 c" Q [47:0] $end
$upscope $end
$scope module reg2_FRAC_shifted_B_s2_s3 $end
$var wire 48 d" D [47:0] $end
$var wire 1 ' clk $end
$var wire 1 ) reset $end
$var reg 48 e" Q [47:0] $end
$upscope $end
$scope module reg2_SIGN_s2_s3 $end
$var wire 1 R D $end
$var wire 1 ' clk $end
$var wire 1 ) reset $end
$var reg 1 F Q $end
$upscope $end
$scope module reg3_EXPO_s3_s4 $end
$var wire 8 f" D [7:0] $end
$var wire 1 ' clk $end
$var wire 1 ) reset $end
$var reg 8 g" Q [7:0] $end
$upscope $end
$scope module reg3_FRAC_Cout_s3_s4 $end
$var wire 1 M D $end
$var wire 1 ' clk $end
$var wire 1 ) reset $end
$var reg 1 D Q $end
$upscope $end
$scope module reg3_FRAC_Sum_s3_s4 $end
$var wire 48 h" D [47:0] $end
$var wire 1 ' clk $end
$var wire 1 ) reset $end
$var reg 48 i" Q [47:0] $end
$upscope $end
$scope module reg3_SIGN_s3_s4 $end
$var wire 1 F D $end
$var wire 1 ' clk $end
$var wire 1 ) reset $end
$var reg 1 > Q $end
$upscope $end
$scope module reg4_EXPO_s4_s5 $end
$var wire 8 j" D [7:0] $end
$var wire 1 ' clk $end
$var wire 1 ) reset $end
$var reg 8 k" Q [7:0] $end
$upscope $end
$scope module reg4_FRAC_count_s4_s5 $end
$var wire 8 l" D [7:0] $end
$var wire 1 ' clk $end
$var wire 1 ) reset $end
$var reg 8 m" Q [7:0] $end
$upscope $end
$scope module reg4_FRAC_direction_s4_s5 $end
$var wire 1 @ D $end
$var wire 1 ' clk $end
$var wire 1 ) reset $end
$var reg 1 9 Q $end
$upscope $end
$scope module reg4_FRAC_doing_s4_s5 $end
$var wire 1 ? D $end
$var wire 1 ' clk $end
$var wire 1 ) reset $end
$var reg 1 8 Q $end
$upscope $end
$scope module reg4_FRAC_nor_FRAC_s4_s5 $end
$var wire 49 n" D [48:0] $end
$var wire 1 ' clk $end
$var wire 1 ) reset $end
$var reg 49 o" Q [48:0] $end
$upscope $end
$scope module reg4_SIGN_s4_s5 $end
$var wire 1 > D $end
$var wire 1 ' clk $end
$var wire 1 ) reset $end
$var reg 1 6 Q $end
$upscope $end
$scope module reg5_EXPO_s5_s6 $end
$var wire 9 p" D [8:0] $end
$var wire 1 ' clk $end
$var wire 1 ) reset $end
$var reg 9 q" Q [8:0] $end
$upscope $end
$scope module reg5_FRAC_shifted_s5_s6 $end
$var wire 48 r" D [47:0] $end
$var wire 1 ' clk $end
$var wire 1 ) reset $end
$var reg 48 s" Q [47:0] $end
$upscope $end
$scope module reg5_SIGN_s5_s6 $end
$var wire 1 6 D $end
$var wire 1 ' clk $end
$var wire 1 ) reset $end
$var reg 1 - Q $end
$upscope $end
$scope module reg6_OF $end
$var wire 1 ' clk $end
$var wire 1 ) reset $end
$var wire 1 3 D $end
$var reg 1 $ Q $end
$upscope $end
$scope module reg6_UF $end
$var wire 1 ' clk $end
$var wire 1 ) reset $end
$var wire 1 1 D $end
$var reg 1 # Q $end
$upscope $end
$scope module reg6_error $end
$var wire 1 0 D $end
$var wire 1 ' clk $end
$var wire 1 ) reset $end
$var reg 1 " Q $end
$upscope $end
$scope module reg6_result_out $end
$var wire 1 ' clk $end
$var wire 1 ) reset $end
$var wire 32 t" D [31:0] $end
$var reg 32 u" Q [31:0] $end
$upscope $end
$scope module s1_mag $end
$var wire 31 v" mag_b [30:0] $end
$var wire 31 w" mag_a [30:0] $end
$var wire 1 c bigger $end
$var wire 23 x" FRAC_B [22:0] $end
$var wire 23 y" FRAC_A [22:0] $end
$var wire 8 z" EXPO_B [7:0] $end
$var wire 8 {" EXPO_A [7:0] $end
$upscope $end
$scope module s6_final $end
$var wire 9 |" EXPO [8:0] $end
$var wire 23 }" FRAC [22:0] $end
$var wire 1 - SIGN $end
$var reg 32 ~" final_result [31:0] $end
$var reg 1 3 overflow_flag $end
$var reg 1 1 underflow_flag $end
$upscope $end
$scope module unpack_A_s1 $end
$var wire 32 !# IN [31:0] $end
$var wire 1 e SIGN $end
$var wire 23 "# FRAC [22:0] $end
$var wire 8 ## EXPO [7:0] $end
$upscope $end
$scope module unpack_B_s1 $end
$var wire 32 $# IN [31:0] $end
$var wire 1 d SIGN $end
$var wire 23 %# FRAC [22:0] $end
$var wire 8 &# EXPO [7:0] $end
$upscope $end
$upscope $end
$upscope $end
$enddefinitions $end
#0
$dumpvars
b0 &#
b0 %#
b0 $#
b0 ##
b0 "#
b0 !#
b0 ~"
b0 }"
b0 |"
b0 {"
b0 z"
b0 y"
b0 x"
b0 w"
b0 v"
b0 u"
b0 t"
b0 s"
b0 r"
b0 q"
b0 p"
b0 o"
b0 n"
b0 m"
b0 l"
b0 k"
b0 j"
b0 i"
b0 h"
b0 g"
b0 f"
b0 e"
b0 d"
b0 c"
b0 b"
b0 a"
b0 `"
b0 _"
b0 ^"
b0 ]"
b0 \"
b0 ["
b100000000000000000000000000000000000000000000000 Z"
b0 Y"
b100000000000000000000000000000000000000000000000 X"
b0 W"
b0 V"
b0 U"
b0 T"
b0 S"
b0 R"
b0 Q"
b0 P"
b0 O"
b0 N"
b0 M"
b0 L"
b0 K"
b0 J"
1I"
b0 H"
b0 G"
zF"
b0 E"
b0 D"
b0 C"
b0 B"
0A"
0@"
0?"
0>"
b0 ="
0<"
b0 ;"
0:"
b0 9"
b0 8"
b1 7"
b0 6"
b0 5"
b0 4"
b0 3"
02"
b0 1"
b0 0"
0/"
b0 ."
b0 -"
b0 ,"
b0 +"
0*"
b0 )"
b0 ("
b0 '"
b0 &"
b0 %"
b0 $"
b0 #"
b0 ""
b0 !"
b0 ~
b0 }
b0 |
b0 {
b0 z
b0 y
b0 x
b0 w
b0 v
b0 u
b0 t
b0 s
b0 r
b0 q
b0 p
b0 o
b0 n
b0 m
1l
0k
0j
b0 i
b0 h
b0 g
b0 f
0e
0d
0c
0b
b0 a
b0 `
0_
0^
0]
b0 \
b0 [
b0 Z
b0 Y
b0 X
b0 W
0V
0U
0T
0S
0R
0Q
b0 P
b0 O
b0 N
0M
b0 L
b0 K
b0 J
b0 I
b0 H
0G
0F
b0 E
0D
b0 C
b0 B
b0 A
0@
0?
0>
b0 =
b0 <
b0 ;
b0 :
09
08
b0 7
06
b0 5
b0 4
03
02
11
10
b0 /
b0 .
0-
b0 ,
b0 +
b0 *
1)
0(
0'
b0 &
b0 %
0$
0#
0"
b0 !
$end
#5000
1'
#10000
0'
#11000
b1000000001000000000000000000000 &
b1000000001000000000000000000000 +
b1000000001000000000000000000000 R"
b111111110000000000000000000000 %
b111111110000000000000000000000 *
b111111110000000000000000000000 P"
0)
#15000
b10000000 n
b10000000 r
b10000000 V"
1k
b1 m
b1 u
b1 T"
1c
b100000000000000000000000000000000000000000000000 Z
b100000000000000000000000000000000000000000000000 3"
b100000000000000000000000000000000000000000000000 ^"
b100000000000000000000000000000000000000000000000 Y
b100000000000000000000000000000000000000000000000 0"
b100000000000000000000000000000000000000000000000 `"
b1111111 p
b1111111 t
b1111111 {"
b1111111 ##
b111111110000000000000000000000 w"
b110000000000000000000000000000000000000000000000 X"
b10000000000000000000000 i
b10000000000000000000000 y"
b10000000000000000000000 "#
b10000000 o
b10000000 s
b10000000 z"
b10000000 &#
b1000000001000000000000000000000 v"
b101000000000000000000000000000000000000000000000 Z"
b1000000000000000000000 h
b1000000000000000000000 x"
b1000000000000000000000 %#
b100000000000000000000000000000000000000000000000 X
b100000000000000000000000000000000000000000000000 x
b100000000000000000000000000000000000000000000000 1"
b100000000000000000000000000000000000000000000000 b"
b100000000000000000000000000000000000000000000000 W
b100000000000000000000000000000000000000000000000 {
b100000000000000000000000000000000000000000000000 ."
b100000000000000000000000000000000000000000000000 d"
b111111110000000000000000000000 g
b111111110000000000000000000000 Q"
b111111110000000000000000000000 !#
b1000000001000000000000000000000 f
b1000000001000000000000000000000 S"
b1000000001000000000000000000000 $#
b100000000000000000000000000000000000000000000000 \
b100000000000000000000000000000000000000000000000 v
b100000000000000000000000000000000000000000000000 Y"
b100000000000000000000000000000000000000000000000 [
b100000000000000000000000000000000000000000000000 y
b100000000000000000000000000000000000000000000000 ["
1_
1#
1"
1'
#20000
0'
#25000
1*"
1M
b1000000000000000000000000000000000000000000000000 +"
b1000000000000000000000000000000000000000000000000 $"
b101000000000000000000000000000000000000000000000 Y
b101000000000000000000000000000000000000000000000 0"
b101000000000000000000000000000000000000000000000 `"
b11000000000000000000000000000000000000000000000 Z
b11000000000000000000000000000000000000000000000 3"
b11000000000000000000000000000000000000000000000 ^"
b100000000000000000000000000000000000000000000000 '"
b100000000000000000000000000000000000000000000000 !"
b101000000000000000000000000000000000000000000000 W
b101000000000000000000000000000000000000000000000 {
b101000000000000000000000000000000000000000000000 ."
b101000000000000000000000000000000000000000000000 d"
b11000000000000000000000000000000000000000000000 X
b11000000000000000000000000000000000000000000000 x
b11000000000000000000000000000000000000000000000 1"
b11000000000000000000000000000000000000000000000 b"
1T
b10000000 a
b10000000 W"
b10000000 \"
1^
b1 `
b1 w
b1 z
b1 U"
b100000000000000000000000000000000000000000000000 H
b100000000000000000000000000000000000000000000000 %"
b100000000000000000000000000000000000000000000000 a"
b100000000000000000000000000000000000000000000000 I
b100000000000000000000000000000000000000000000000 ,"
b100000000000000000000000000000000000000000000000 _"
b100000000000000000000000000000000000000000000000 N
b100000000000000000000000000000000000000000000000 -"
b100000000000000000000000000000000000000000000000 e"
b100000000000000000000000000000000000000000000000 O
b100000000000000000000000000000000000000000000000 &"
b100000000000000000000000000000000000000000000000 c"
b101000000000000000000000000000000000000000000000 [
b101000000000000000000000000000000000000000000000 y
b101000000000000000000000000000000000000000000000 ["
b110000000000000000000000000000000000000000000000 \
b110000000000000000000000000000000000000000000000 v
b110000000000000000000000000000000000000000000000 Y"
1'
#30000
0'
#35000
1*"
1M
b1110000000000000000000000000000000000000000000000 +"
b1110000000000000000000000000000000000000000000000 $"
b0 L
b0 E"
b0 h"
b0 J
b0 )"
b0 D"
b0 K
b0 #"
b0 C"
b110000000000000000000000000000000000000000000000 ("
b1000000000000000000000000000000000000000000000 '"
b110000000000000000000000000000000000000000000000 ""
b1000000000000000000000000000000000000000000000 !"
1?
1@
b1 A
b1 K"
b1 l"
b11000000000000000000000000000000000000000000000 O
b11000000000000000000000000000000000000000000000 &"
b11000000000000000000000000000000000000000000000 c"
b101000000000000000000000000000000000000000000000 N
b101000000000000000000000000000000000000000000000 -"
b101000000000000000000000000000000000000000000000 e"
b11000000000000000000000000000000000000000000000 I
b11000000000000000000000000000000000000000000000 ,"
b11000000000000000000000000000000000000000000000 _"
b101000000000000000000000000000000000000000000000 H
b101000000000000000000000000000000000000000000000 %"
b101000000000000000000000000000000000000000000000 a"
b1000000000000000000000000000000000000000000000000 B
b1000000000000000000000000000000000000000000000000 G"
b1000000000000000000000000000000000000000000000000 n"
1D
b10000000 P
b10000000 ]"
b10000000 f"
1'
#40000
0'
#45000
b100000000000000000000000000000000000000000000000 r"
b1 =
b1 6"
b1 p"
b1 5"
b100000000000000000000000000000000000000000000000 7
b100000000000000000000000000000000000000000000000 ~
b10000000 E
b10000000 g"
b10000000 j"
b1000000000000000000000000000000000000000000000000 ;
b1000000000000000000000000000000000000000000000000 |
b1000000000000000000000000000000000000000000000000 o"
18
19
b1 :
b1 }
b1 m"
1'
#50000
0'
#55000
00
01
b100000000000000000000000 ,
b100000000000000000000000 t"
b100000000000000000000000 ~"
b100000000000000000000000 ;"
b10000001 =
b10000001 6"
b10000001 p"
b1 /
b1 8"
b1 |"
b100000000000000000000000000000000000000000000000 4
b100000000000000000000000000000000000000000000000 B"
b100000000000000000000000000000000000000000000000 s"
b10000000 4"
b10000000 <
b10000000 k"
b10 7"
b1 5
b1 9"
b1 q"
1'
#60000
0'
#65000
b1000000100000000000000000000000 ,
b1000000100000000000000000000000 t"
b1000000100000000000000000000000 ~"
01
b10000001 /
b10000001 8"
b10000001 |"
b100000000000000000000000 !
b100000000000000000000000 q
b100000000000000000000000 u"
0"
0#
b10000010 7"
b10000001 5
b10000001 9"
b10000001 q"
1'
#70000
0'
#75000
b1000000100000000000000000000000 !
b1000000100000000000000000000000 q
b1000000100000000000000000000000 u"
1'
